{
  "replace": false,
  "values": [
    "minecraft:mushroom_fields",
    "minecraft:windswept_gravelly_hills",
    "minecraft:grove",
    "minecraft:windswept_hills",
    "minecraft:windswept_forest",
    "minecraft:taiga",
    "minecraft:plains",
    "minecraft:meadow",
    "minecraft:forest",
    "minecraft:old_growth_spruce_taiga",
    "minecraft:flower_forest",
    "minecraft:birch_forest",
    "minecraft:dark_forest",
    "minecraft:savanna_plateau",
    "minecraft:savanna",
    "minecraft:jungle",
    "minecraft:badlands",
    "minecraft:desert",
    "minecraft:wooded_badlands",
    "minecraft:old_growth_pine_taiga",
    "minecraft:sunflower_plains",
    "minecraft:old_growth_birch_forest",
    "minecraft:sparse_jungle",
    "minecraft:bamboo_jungle",
    "minecraft:eroded_badlands",
    "minecraft:windswept_savanna",
	"bewarethedark:rockyland",
    "bewarethedark:deciduous_forest",
    "bewarethedark:creepy_forest",
    "bewarethedark:lumpy_forest",
    "bewarethedark:marsh",
    "bewarethedark:graveyard"
  ]
}