{
	"replace": false,
	"values": [
		"bewarethedark:lumpy_evergreen_leaves",
		"bewarethedark:evergreen_leaves",
		"bewarethedark:orange_deciduous_leaves",
		"bewarethedark:red_deciduous_leaves",
		"bewarethedark:yellow_deciduous_leaves",
		"bewarethedark:green_deciduous_leaves"
	]

}