{
  "type": "bewarethedark:crock_pot",
  "ingredients": [
    {
      "tag": "bewarethedark:crockpot_filler_fst"
    },
	{
      "tag": "bewarethedark:crockpot_twigs"
    },
	{
      "tag": "bewarethedark:crockpot_potato"
    },
	{
      "tag": "bewarethedark:crockpot_twigs"
    }
  ],
  "output": {
    "item": "bewarethedark:fancy_spiraled_tubers"
  },
  "time": 720
}