{
  "type": "bewarethedark:crock_pot",
  "ingredients": [
    {
      "tag": "bewarethedark:crockpot_eggs"
    },
    {
      "tag": "bewarethedark:crockpot_eggs"
    },
	{
      "tag": "bewarethedark:crockpot_meat_value_one"
    },
	{
      "tag": "bewarethedark:crockpot_meat_only_filler"
    }
  ],
  "output": {
    "item": "bewarethedark:bacon_and_eggs"
  },
  "time": 1920
}