{
    "type": "minecraft:crafting_shaped",
    "pattern": [
        "#",
        "B",
        "F"
    ],
    "key": {
        "#": {
            "item": "bewarethedark:venom_gland"
        },
        "B": {
            "item": "bewarethedark:cut_reeds"
        },
        "F": {
            "item": "minecraft:feather"
        }
    },
    "result": {
        "item": "bewarethedark:poison_blow_dart",
        "count": 1
    }
}