{
    "type": "minecraft:crafting_shaped",
    "pattern": [
        "#B",
        "# ",
        "# "
    ],
    "key": {
        "#": {
            "item": "bewarethedark:cat_tail"
        },
        "B": {
            "item": "bewarethedark:tentacle_spots"
        }
    },
    "result": {
        "item": "bewarethedark:tail_o_three_cats",
        "count": 1
    }
}