{
  "type": "bewarethedark:crock_pot",
  "ingredients": [
    {
      "tag": "bewarethedark:crockpot_berries"
    },
	{
      "tag": "bewarethedark:crockpot_filler_tm"
    },
	{
      "item": "bewarethedark:roasted_birchnut"
    },
	{
      "tag": "bewarethedark:crockpot_fruit"
    }
  ],
  "output": {
    "item": "bewarethedark:trail_mix"
  },
  "time": 480
}