{
  "type": "bewarethedark:crock_pot",
  "ingredients": [
    {
      "tag": "bewarethedark:crockpot_dairy"
    },
	{
      "tag": "bewarethedark:crockpot_filler_ice_cream"
    },
	{
      "tag": "bewarethedark:crockpot_sweetener"
    },
	{
      "tag": "bewarethedark:crockpot_ice"
    }
  ],
  "output": {
    "item": "bewarethedark:ice_cream"
  },
  "time": 480
}