{
    "parent": "block/grass",
    "textures": {
        "particle": "bewarethedark:blocks/natural/grasslands_turf_top",
        "bottom": "minecraft:blocks/dirt",
        "top": "bewarethedark:blocks/natural/grasslands_turf_top",
        "side": "bewarethedark:blocks/natural/grasslands_turf_side",
        "overlay": "bewarethedark:blocks/natural/grasslands_turf_side_overlay"
    }
}