{
  "replace": false,
  "values": [
    "minecraft:sugar",
	"minecraft:beetroot",
	"minecraft:potato",
	"minecraft:glow_berries",
	"minecraft:melon_slice",
	"minecraft:sweet_berries",
	"minecraft:chorus_fruit",
	"minecraft:carrot",
	"minecraft:apple",
	"minecraft:honey_bottle",
	"minecraft:milk_bucket",
	"minecraft:honeycomb",
	"minecraft:popped_chorus_fruit",
	"minecraft:cocoa_beans",
	"minecraft:kelp",
	"minecraft:red_mushroom",
	"minecraft:brown_mushroom",
	"minecraft:crimson_fungus",
	"minecraft:warped_fungus",
	"minecraft:ice",
	"minecraft:blue_ice",
	"minecraft:packed_ice",
	"minecraft:dried_kelp",
	"bewarethedark:berries",
	"bewarethedark:roasted_berries",
	"bewarethedark:dried_seaweed",
	"bewarethedark:roasted_carrot",
	"bewarethedark:roasted_birchnut",
	"bewarethedark:honey",
	"bewarethedark:red_cap",
	"bewarethedark:green_cap",
	"bewarethedark:blue_cap",
	"bewarethedark:cooked_red_cap",
	"bewarethedark:cooked_green_cap",
	"bewarethedark:cooked_blue_cap"
  ]
}