{
  "replace": false,
  "values": [
    "minecraft:sugar",
    "minecraft:chicken",
	"minecraft:cod",
	"minecraft:mutton",
	"minecraft:salmon",
	"minecraft:beef",
	"minecraft:porkchop",
	"minecraft:rabbit",
	"minecraft:cactus",
	"minecraft:pumpkin",
	"minecraft:stick",
	"minecraft:cooked_cod",
	"minecraft:cooked_rabbit",
	"minecraft:cooked_chicken",
	"minecraft:cooked_mutton",
	"minecraft:cooked_salmon",
	"minecraft:cooked_porkchop",
	"minecraft:cooked_beef",
	"minecraft:egg",
	"minecraft:melon",
	"minecraft:turtle_egg",
	"minecraft:beetroot",
	"minecraft:potato",
	"minecraft:baked_potato",
	"minecraft:glow_berries",
	"minecraft:melon_slice",
	"minecraft:sweet_berries",
	"minecraft:chorus_fruit",
	"minecraft:carrot",
	"minecraft:apple",
	"minecraft:honey_block",
	"minecraft:milk_bucket",
	"minecraft:honeycomb",
	"minecraft:popped_chorus_fruit",
	"minecraft:cocoa_beans",
	"minecraft:ice",
	"minecraft:blue_ice",
	"minecraft:packed_ice",
	"minecraft:kelp",
	"minecraft:dried_kelp",
	"minecraft:red_mushroom",
	"minecraft:brown_mushroom",
	"minecraft:crimson_fungus",
	"minecraft:warped_fungus",
	"bewarethedark:twigs",
	"bewarethedark:cooked_egg",
	"bewarethedark:fish",
	"bewarethedark:cooked_fish",
	"bewarethedark:berries",
	"bewarethedark:roasted_berries",
	"bewarethedark:meat",
	"bewarethedark:cooked_meat",
	"bewarethedark:morsel",
	"bewarethedark:cooked_morsel",
	"bewarethedark:small_jerky",
	"bewarethedark:jerky",
	"bewarethedark:dried_seaweed",
	"bewarethedark:roasted_carrot",
	"bewarethedark:roasted_birchnut",
	"bewarethedark:honey",
	"bewarethedark:butterfly_wings",
	"bewarethedark:jungle_butterfly_wings",
	"bewarethedark:red_cap",
	"bewarethedark:green_cap",
	"bewarethedark:blue_cap",
	"bewarethedark:cooked_red_cap",
	"bewarethedark:cooked_green_cap",
	"bewarethedark:cooked_blue_cap",
	"bewarethedark:batilisk_wing",
	"bewarethedark:cooked_batilisk_wing",
	"bewarethedark:monster_meat",
	"bewarethedark:cooked_monster_meat",
	"bewarethedark:monster_jerky"
  ]
}