{
  "replace": false,
  "values": [
    "minecraft:sugar",
	"minecraft:stick",
	"minecraft:melon",
	"minecraft:glow_berries",
	"minecraft:melon_slice",
	"minecraft:sweet_berries",
	"minecraft:chorus_fruit",
	"minecraft:apple",
	"minecraft:honey_block",
	"minecraft:honeycomb",
	"minecraft:popped_chorus_fruit",
	"minecraft:cocoa_beans",
	"minecraft:ice",
	"minecraft:blue_ice",
	"minecraft:packed_ice",
	"bewarethedark:twigs",
	"bewarethedark:berries",
	"bewarethedark:roasted_berries",
	"bewarethedark:roasted_birchnut",
	"bewarethedark:honey"
  ]
}