{
  "replace": false,
  "values": [
    "minecraft:chicken",
	"minecraft:cod",
	"minecraft:mutton",
	"minecraft:salmon",
	"minecraft:beef",
	"minecraft:porkchop",
	"minecraft:rabbit",
	"minecraft:cooked_cod",
	"minecraft:cooked_rabbit",
	"minecraft:cooked_chicken",
	"minecraft:cooked_mutton",
	"minecraft:cooked_salmon",
	"minecraft:cooked_porkchop",
	"minecraft:cooked_beef",
	"bewarethedark:fish",
	"bewarethedark:cooked_fish",
	"bewarethedark:meat",
	"bewarethedark:cooked_meat",
	"bewarethedark:morsel",
	"bewarethedark:cooked_morsel",
	"bewarethedark:small_jerky",
	"bewarethedark:jerky",
	"bewarethedark:batilisk_wing",
	"bewarethedark:cooked_batilisk_wing"
  ]
}