{
  "replace": false,
  "values": [
	"minecraft:cactus",
	"minecraft:pumpkin",
	"minecraft:beetroot",
	"minecraft:potato",
	"minecraft:baked_potato",
	"minecraft:carrot",
	"minecraft:kelp",
	"minecraft:dried_kelp",
	"bewarethedark:dried_seaweed",
	"bewarethedark:roasted_carrot",
	"bewarethedark:red_cap",
	"bewarethedark:green_cap",
	"bewarethedark:blue_cap",
	"bewarethedark:cooked_red_cap",
	"bewarethedark:cooked_green_cap",
	"bewarethedark:cooked_blue_cap"
  ]
}