{
  "replace": false,
  "values": [
    "bewarethedark:berries",
    "minecraft:sugar_cane",
    "bewarethedark:rope",
    "minecraft:wheat_seeds",
    "minecraft:beetroot_seeds",
    "minecraft:melon_seeds",
    "minecraft:pumpkin_seeds",
    "bewarethedark:silk",
    "bewarethedark:berries",
    "minecraft:sugar_cane",
    "bewarethedark:rope",
    "bewarethedark:silk",
    "bewarethedark:berries",
    "minecraft:sugar_cane",
    "bewarethedark:rope",
    "bewarethedark:silk",
    "bewarethedark:berries",
    "minecraft:sugar_cane",
    "minecraft:feather",
    "minecraft:bone",
    "bewarethedark:berries",
    "minecraft:sugar_cane",
    "bewarethedark:rope",
    "minecraft:wheat_seeds",
    "minecraft:beetroot_seeds",
    "minecraft:melon_seeds",
    "minecraft:pumpkin_seeds",
    "bewarethedark:silk",
    "bewarethedark:berries",
    "minecraft:sugar_cane",
    "bewarethedark:rope",
    "bewarethedark:silk",
    "bewarethedark:berries",
    "minecraft:sugar_cane",
    "bewarethedark:rope",
    "bewarethedark:silk",
    "bewarethedark:berries",
    "minecraft:sugar_cane",
    "minecraft:feather",
    "minecraft:bone",
    "bewarethedark:berries",
    "minecraft:sugar_cane",
    "bewarethedark:rope",
    "minecraft:wheat_seeds",
    "minecraft:beetroot_seeds",
    "minecraft:melon_seeds",
    "minecraft:pumpkin_seeds",
    "bewarethedark:silk",
    "bewarethedark:berries",
    "bewarethedark:basic_farm_blueprint",
    "bewarethedark:cobblestones_blueprint",
    "bewarethedark:cut_stone_blueprint",
    "bewarethedark:hammer_blueprint",
    "bewarethedark:healing_salve_blueprint",
    "bewarethedark:improved_farm_blueprint",
    "bewarethedark:log_suit_blueprint",
    "bewarethedark:luxury_axe_blueprint",
    "bewarethedark:opulent_pickaxe_blueprint",
    "bewarethedark:pitchfork_blueprint",
    "bewarethedark:regal_shovel_blueprint",
    "bewarethedark:shovel_blueprint",
    "bewarethedark:spear_blueprint",
    "bewarethedark:wooden_flooring_blueprint",
    "bewarethedark:compass_blueprint",
    "bewarethedark:fishing_rod_blueprint",
    "bewarethedark:chest_blueprint",
    "bewarethedark:sign_blueprint",
    "bewarethedark:paper_blueprint",
    "bewarethedark:pumpkin_lantern_blueprint",
    "bewarethedark:boards_blueprint",
    "bewarethedark:rope_blueprint",
    "bewarethedark:carpeted_flooring_blueprint",
	"bewarethedark:silk",
    "bewarethedark:berries",
    "minecraft:sugar_cane",
    "minecraft:feather",
    "minecraft:bone",
	"bewarethedark:silk",
    "bewarethedark:berries",
    "minecraft:sugar_cane",
    "minecraft:feather",
    "minecraft:bone",
	"bewarethedark:silk",
    "bewarethedark:berries",
    "minecraft:sugar_cane",
    "minecraft:feather",
    "minecraft:bone",
	"bewarethedark:silk",
    "bewarethedark:berries",
    "minecraft:sugar_cane",
    "minecraft:feather",
    "minecraft:bone",
	"bewarethedark:anti_venom_blueprint",
	"bewarethedark:bug_net_blueprint",
	"bewarethedark:dart_blueprint",
	"bewarethedark:fire_dart_blueprint",
	"bewarethedark:electric_dart_blueprint",
	"bewarethedark:poison_dart_blueprint",
	"bewarethedark:lantern_blueprint",
	"bewarethedark:miner_hat_blueprint",
	"bewarethedark:poison_spear_blueprint",
	"bewarethedark:guano_turf_blueprint",
	"bewarethedark:straw_roll_blueprint",
	"bewarethedark:tail_o_three_cats_blueprint"
  ]
}