{
  "type": "bewarethedark:crock_pot",
  "ingredients": [
    {
      "tag": "bewarethedark:crockpot_twigs"
    },
	{
      "tag": "bewarethedark:crockpot_twigs"
    },
	{
      "tag": "bewarethedark:crockpot_twigs"
    },
	{
      "item": "minecraft:potato"
    }
  ],
  "output": {
    "item": "bewarethedark:wet_goop"
  },
  "time": 480
}