{
  "type": "bewarethedark:crock_pot",
  "ingredients": [
    {
      "tag": "bewarethedark:crockpot_eggs"
    },
	{
       "tag": "bewarethedark:crockpot_veg"
    },
    {
      "tag": "bewarethedark:crockpot_all_meat"
    },
	{
      "tag": "bewarethedark:crockpot_filler_pierogi"
    }
  ],
  "output": {
    "item": "bewarethedark:pierogi"
  },
  "time": 960
}