{
    "type": "minecraft:crafting_shapeless",
    "ingredients": [
        {
            "item": "bewarethedark:coral"
        },
        {
            "item": "bewarethedark:coral"
        },
        {
            "item": "minecraft:kelp"
        },
		{
            "item": "minecraft:kelp"
        },
        {
            "item": "bewarethedark:venom_gland"
        },
        {
            "item": "minecraft:kelp"
        }
    ],
    "result": {
        "item": "bewarethedark:anti_venom",
        "count": 1
    }
}