{
    "type": "minecraft:crafting_shaped",
    "pattern": [
        "##B",
        "#BV",
        "#  "
    ],
    "key": {
        "#": {
            "item": "bewarethedark:twigs"
        },
        "B": {
            "item": "bewarethedark:silk"
        },
        "V": {
            "item": "bewarethedark:rope"
        }
    },
    "result": {
        "item": "bewarethedark:bug_net",
        "count": 1
    }
}