{ 
    "type": "minecraft:crafting_shapeless",

    "ingredients": 
    [

    {
      "item": "bewarethedark:rocks"
    },
	
	{
      "item": "bewarethedark:spider_gland"
    },
	
	{
      "item": "bewarethedark:ashes"
    },
	
	{
      "item": "bewarethedark:ashes"
    }
    
    ],

    "result": 
    {
        "item": "bewarethedark:healing_salve",
        "count": 1
    }
}