{
  "type": "bewarethedark:crock_pot",
  "ingredients": [
    {
      "tag": "bewarethedark:crockpot_sweetener"
    },
    {
      "item": "minecraft:pumpkin"
    },
	{
      "tag": "bewarethedark:crockpot_filler_pc"
    },
	{
      "tag": "bewarethedark:crockpot_sweetener"
    }
  ],
  "output": {
    "item": "bewarethedark:pumpkin_cookie"
  },
  "time": 1920
}