{
  "type": "bewarethedark:crock_pot",
  "ingredients": [
	{
      "tag": "bewarethedark:crockpot_filler_ffoj"
    },
	{
      "tag": "bewarethedark:crockpot_filler_ffoj"
    },
	{
      "tag": "bewarethedark:crockpot_filler_ffoj"
    },
	{
      "tag": "bewarethedark:crockpot_twigs"
    }
  ],
  "output": {
    "item": "bewarethedark:fruit_medley"
  },
  "time": 480
}