{
   "parent": "block/cube",
   "textures": {
                        "particle": "minecraft:block/farmland",
		"down": "minecraft:block/oak_planks",
		"up": "minecraft:block/farmland",
		"north": "minecraft:block/oak_planks",
		"east": "minecraft:block/oak_planks",
		"south": "minecraft:block/oak_planks",
		"west": "minecraft:block/oak_planks"
   }
}