{
	"credit": "Made with Blockbench",
	"textures": {
		"1": "item/stick",
		"4": "bewarethedark:items/refine/rope",
		"particle": "item/stick"
	},
	"elements": [
		{
			"name": "stick_2",
			"from": [1, 1, 8],
			"to": [4, 2, 9],
			"rotation": {"angle": 45, "axis": "z", "origin": [0, 0, 0]},
			"faces": {
				"north": {"uv": [11, 4, 12, 7], "rotation": 90, "texture": "#1"},
				"east": {"uv": [11, 6, 12, 7], "rotation": 90, "texture": "#1"},
				"south": {"uv": [11, 7, 12, 4], "rotation": 90, "texture": "#1"},
				"west": {"uv": [12, 4, 11, 5], "rotation": 270, "texture": "#1"},
				"up": {"uv": [11, 4, 12, 7], "rotation": 270, "texture": "#1"},
				"down": {"uv": [11, 4, 12, 7], "rotation": 270, "texture": "#1"}
			}
		},
		{
			"name": "stick_4",
			"from": [2, 2, 8],
			"to": [5, 3, 9],
			"rotation": {"angle": 45, "axis": "z", "origin": [0, 0, 0]},
			"faces": {
				"north": {"uv": [10, 5, 11, 8], "rotation": 90, "texture": "#1"},
				"east": {"uv": [10, 7, 11, 8], "rotation": 90, "texture": "#1"},
				"south": {"uv": [10, 8, 11, 5], "rotation": 90, "texture": "#1"},
				"west": {"uv": [11, 5, 10, 6], "rotation": 270, "texture": "#1"},
				"up": {"uv": [10, 5, 11, 8], "rotation": 270, "texture": "#1"},
				"down": {"uv": [10, 5, 11, 8], "rotation": 270, "texture": "#1"}
			}
		},
		{
			"name": "stick_5",
			"from": [3, 3, 8],
			"to": [6, 4, 9],
			"rotation": {"angle": 45, "axis": "z", "origin": [0, 0, 0]},
			"faces": {
				"north": {"uv": [9, 6, 10, 9], "rotation": 90, "texture": "#1"},
				"east": {"uv": [9, 8, 10, 9], "rotation": 90, "texture": "#1"},
				"south": {"uv": [9, 9, 10, 6], "rotation": 90, "texture": "#1"},
				"west": {"uv": [10, 6, 9, 7], "rotation": 270, "texture": "#1"},
				"up": {"uv": [9, 6, 10, 9], "rotation": 270, "texture": "#1"},
				"down": {"uv": [9, 6, 10, 9], "rotation": 270, "texture": "#1"}
			}
		},
		{
			"name": "stick_6",
			"from": [4, 4, 8],
			"to": [7, 5, 9],
			"rotation": {"angle": 45, "axis": "z", "origin": [0, 0, 0]},
			"faces": {
				"north": {"uv": [8, 7, 9, 10], "rotation": 90, "texture": "#1"},
				"east": {"uv": [8, 9, 9, 10], "rotation": 90, "texture": "#1"},
				"south": {"uv": [8, 10, 9, 7], "rotation": 90, "texture": "#1"},
				"west": {"uv": [9, 7, 8, 8], "rotation": 270, "texture": "#1"},
				"up": {"uv": [8, 7, 9, 10], "rotation": 270, "texture": "#1"},
				"down": {"uv": [8, 7, 9, 10], "rotation": 270, "texture": "#1"}
			}
		},
		{
			"name": "stick_7",
			"from": [5, 5, 8],
			"to": [8, 6, 9],
			"rotation": {"angle": 45, "axis": "z", "origin": [0, 0, 0]},
			"faces": {
				"north": {"uv": [7, 8, 8, 11], "rotation": 90, "texture": "#1"},
				"east": {"uv": [7, 10, 8, 11], "rotation": 90, "texture": "#1"},
				"south": {"uv": [7, 11, 8, 8], "rotation": 90, "texture": "#1"},
				"west": {"uv": [8, 8, 7, 9], "rotation": 270, "texture": "#1"},
				"up": {"uv": [7, 8, 8, 11], "rotation": 270, "texture": "#1"},
				"down": {"uv": [7, 8, 8, 11], "rotation": 270, "texture": "#1"}
			}
		},
		{
			"name": "stick_8",
			"from": [6, 6, 8],
			"to": [9, 7, 9],
			"rotation": {"angle": 45, "axis": "z", "origin": [0, 0, 0]},
			"faces": {
				"north": {"uv": [6, 9, 7, 12], "rotation": 90, "texture": "#1"},
				"east": {"uv": [6, 11, 7, 12], "rotation": 90, "texture": "#1"},
				"south": {"uv": [6, 12, 7, 9], "rotation": 90, "texture": "#1"},
				"west": {"uv": [7, 9, 6, 10], "rotation": 270, "texture": "#1"},
				"up": {"uv": [6, 9, 7, 12], "rotation": 270, "texture": "#1"},
				"down": {"uv": [6, 9, 7, 12], "rotation": 270, "texture": "#1"}
			}
		},
		{
			"name": "stick_9",
			"from": [7, 7, 8],
			"to": [10, 8, 9],
			"rotation": {"angle": 45, "axis": "z", "origin": [0, 0, 0]},
			"faces": {
				"north": {"uv": [5, 10, 6, 13], "rotation": 90, "texture": "#1"},
				"east": {"uv": [5, 12, 6, 13], "rotation": 90, "texture": "#1"},
				"south": {"uv": [5, 13, 6, 10], "rotation": 90, "texture": "#1"},
				"west": {"uv": [6, 10, 5, 11], "rotation": 270, "texture": "#1"},
				"up": {"uv": [5, 10, 6, 13], "rotation": 270, "texture": "#1"},
				"down": {"uv": [5, 10, 6, 13], "rotation": 270, "texture": "#1"}
			}
		},
		{
			"name": "stick_10",
			"from": [8, 8, 8],
			"to": [11, 9, 9],
			"rotation": {"angle": 45, "axis": "z", "origin": [0, 0, 0]},
			"faces": {
				"north": {"uv": [4, 11, 5, 14], "rotation": 90, "texture": "#1"},
				"east": {"uv": [4, 13, 5, 14], "rotation": 90, "texture": "#1"},
				"south": {"uv": [4, 14, 5, 11], "rotation": 90, "texture": "#1"},
				"west": {"uv": [5, 11, 4, 12], "rotation": 270, "texture": "#1"},
				"up": {"uv": [4, 11, 5, 14], "rotation": 270, "texture": "#1"},
				"down": {"uv": [4, 11, 5, 14], "rotation": 270, "texture": "#1"}
			}
		},
		{
			"name": "stick_11",
			"from": [9, 9, 8],
			"to": [12, 10, 9],
			"rotation": {"angle": 45, "axis": "z", "origin": [0, 0, 0]},
			"faces": {
				"north": {"uv": [3, 12, 4, 15], "rotation": 90, "texture": "#1"},
				"east": {"uv": [3, 14, 4, 15], "rotation": 90, "texture": "#1"},
				"south": {"uv": [3, 15, 4, 12], "rotation": 90, "texture": "#1"},
				"west": {"uv": [4, 12, 3, 13], "rotation": 270, "texture": "#1"},
				"up": {"uv": [3, 12, 4, 15], "rotation": 270, "texture": "#1"},
				"down": {"uv": [3, 12, 4, 15], "rotation": 270, "texture": "#1"}
			}
		},
		{
			"name": "stick_12",
			"from": [10, 10, 8],
			"to": [11, 11, 9],
			"rotation": {"angle": 45, "axis": "z", "origin": [0, 0, 0]},
			"faces": {
				"north": {"uv": [2, 14, 3, 15], "rotation": 90, "texture": "#1"},
				"east": {"uv": [2, 14, 3, 15], "rotation": 90, "texture": "#1"},
				"south": {"uv": [2, 14, 3, 15], "rotation": 90, "texture": "#1"},
				"west": {"uv": [2, 14, 3, 15], "rotation": 90, "texture": "#1"},
				"up": {"uv": [2, 14, 3, 15], "rotation": 90, "texture": "#1"},
				"down": {"uv": [2, 14, 3, 15], "rotation": 90, "texture": "#1"}
			}
		},
		{
			"name": "stick_3",
			"from": [11, -10, 8],
			"to": [14, -9, 9],
			"rotation": {"angle": 45, "axis": "z", "origin": [0, 0, 0]},
			"faces": {
				"north": {"uv": [11, 4, 12, 7], "rotation": 90, "texture": "#1"},
				"east": {"uv": [11, 6, 12, 7], "rotation": 90, "texture": "#1"},
				"south": {"uv": [11, 7, 12, 4], "rotation": 90, "texture": "#1"},
				"west": {"uv": [12, 4, 11, 5], "rotation": 270, "texture": "#1"},
				"up": {"uv": [11, 4, 12, 7], "rotation": 270, "texture": "#1"},
				"down": {"uv": [11, 4, 12, 7], "rotation": 270, "texture": "#1"}
			}
		},
		{
			"name": "stick_4",
			"from": [0, 0, 8],
			"to": [3, 1, 9],
			"rotation": {"angle": 45, "axis": "z", "origin": [0, 0, 0]},
			"faces": {
				"north": {"uv": [11, 4, 12, 7], "rotation": 90, "texture": "#1"},
				"east": {"uv": [11, 6, 12, 7], "rotation": 90, "texture": "#1"},
				"south": {"uv": [11, 7, 12, 4], "rotation": 90, "texture": "#1"},
				"west": {"uv": [12, 4, 11, 5], "rotation": 270, "texture": "#1"},
				"up": {"uv": [11, 4, 12, 7], "rotation": 270, "texture": "#1"},
				"down": {"uv": [11, 4, 12, 7], "rotation": 270, "texture": "#1"}
			}
		},
		{
			"name": "stick_4",
			"from": [11, -11, 8],
			"to": [13, -10, 9],
			"rotation": {"angle": 45, "axis": "z", "origin": [0, 0, 0]},
			"faces": {
				"north": {"uv": [11, 4, 12, 7], "rotation": 90, "texture": "#1"},
				"east": {"uv": [11, 6, 12, 7], "rotation": 90, "texture": "#1"},
				"south": {"uv": [11, 7, 12, 4], "rotation": 90, "texture": "#1"},
				"west": {"uv": [12, 4, 11, 5], "rotation": 270, "texture": "#1"},
				"up": {"uv": [11, 4, 12, 7], "rotation": 270, "texture": "#1"},
				"down": {"uv": [11, 4, 12, 7], "rotation": 270, "texture": "#1"}
			}
		},
		{
			"name": "stick_5",
			"from": [10, -11, 8],
			"to": [12, -10, 9],
			"rotation": {"angle": 45, "axis": "z", "origin": [0, 0, 0]},
			"faces": {
				"north": {"uv": [11, 4, 12, 7], "rotation": 90, "texture": "#1"},
				"east": {"uv": [11, 6, 12, 7], "rotation": 90, "texture": "#1"},
				"south": {"uv": [11, 7, 12, 4], "rotation": 90, "texture": "#1"},
				"west": {"uv": [12, 4, 11, 5], "rotation": 270, "texture": "#1"},
				"up": {"uv": [11, 4, 12, 7], "rotation": 270, "texture": "#1"},
				"down": {"uv": [11, 4, 12, 7], "rotation": 270, "texture": "#1"}
			}
		},
		{
			"name": "stick_6",
			"from": [11, -12, 8],
			"to": [12, -11, 9],
			"rotation": {"angle": 45, "axis": "z", "origin": [0, 0, 0]},
			"faces": {
				"north": {"uv": [11, 4, 12, 7], "rotation": 90, "texture": "#1"},
				"east": {"uv": [11, 6, 12, 7], "rotation": 90, "texture": "#1"},
				"south": {"uv": [11, 7, 12, 4], "rotation": 90, "texture": "#1"},
				"west": {"uv": [12, 4, 11, 5], "rotation": 270, "texture": "#1"},
				"up": {"uv": [11, 4, 12, 7], "rotation": 270, "texture": "#1"},
				"down": {"uv": [11, 4, 12, 7], "rotation": 270, "texture": "#1"}
			}
		},
		{
			"name": "stick_5",
			"from": [0, -1, 8],
			"to": [2, 0, 9],
			"rotation": {"angle": 45, "axis": "z", "origin": [0, 0, 0]},
			"faces": {
				"north": {"uv": [11, 4, 12, 7], "rotation": 90, "texture": "#1"},
				"east": {"uv": [11, 6, 12, 7], "rotation": 90, "texture": "#1"},
				"south": {"uv": [11, 7, 12, 4], "rotation": 90, "texture": "#1"},
				"west": {"uv": [12, 4, 11, 5], "rotation": 270, "texture": "#1"},
				"up": {"uv": [11, 4, 12, 7], "rotation": 270, "texture": "#1"},
				"down": {"uv": [11, 4, 12, 7], "rotation": 270, "texture": "#1"}
			}
		},
		{
			"name": "stick_6",
			"from": [0, -2, 8],
			"to": [1, -1, 9],
			"rotation": {"angle": 45, "axis": "z", "origin": [0, 0, 0]},
			"faces": {
				"north": {"uv": [11, 4, 12, 7], "rotation": 90, "texture": "#1"},
				"east": {"uv": [11, 6, 12, 7], "rotation": 90, "texture": "#1"},
				"south": {"uv": [11, 7, 12, 4], "rotation": 90, "texture": "#1"},
				"west": {"uv": [12, 4, 11, 5], "rotation": 270, "texture": "#1"},
				"up": {"uv": [11, 4, 12, 7], "rotation": 270, "texture": "#1"},
				"down": {"uv": [11, 4, 12, 7], "rotation": 270, "texture": "#1"}
			}
		},
		{
			"name": "stick_6",
			"from": [-1, -1, 8],
			"to": [1, 0, 9],
			"rotation": {"angle": 45, "axis": "z", "origin": [0, 0, 0]},
			"faces": {
				"north": {"uv": [11, 4, 12, 7], "rotation": 90, "texture": "#1"},
				"east": {"uv": [11, 6, 12, 7], "rotation": 90, "texture": "#1"},
				"south": {"uv": [11, 7, 12, 4], "rotation": 90, "texture": "#1"},
				"west": {"uv": [12, 4, 11, 5], "rotation": 270, "texture": "#1"},
				"up": {"uv": [11, 4, 12, 7], "rotation": 270, "texture": "#1"},
				"down": {"uv": [11, 4, 12, 7], "rotation": 270, "texture": "#1"}
			}
		},
		{
			"name": "stick_5",
			"from": [12, -9, 8],
			"to": [15, -8, 9],
			"rotation": {"angle": 45, "axis": "z", "origin": [0, 0, 0]},
			"faces": {
				"north": {"uv": [10, 5, 11, 8], "rotation": 90, "texture": "#1"},
				"east": {"uv": [10, 7, 11, 8], "rotation": 90, "texture": "#1"},
				"south": {"uv": [10, 8, 11, 5], "rotation": 90, "texture": "#1"},
				"west": {"uv": [11, 5, 10, 6], "rotation": 270, "texture": "#1"},
				"up": {"uv": [10, 5, 11, 8], "rotation": 270, "texture": "#1"},
				"down": {"uv": [10, 5, 11, 8], "rotation": 270, "texture": "#1"}
			}
		},
		{
			"name": "stick_6",
			"from": [13, -8, 8],
			"to": [16, -7, 9],
			"rotation": {"angle": 45, "axis": "z", "origin": [0, 0, 0]},
			"faces": {
				"north": {"uv": [9, 6, 10, 9], "rotation": 90, "texture": "#1"},
				"east": {"uv": [9, 8, 10, 9], "rotation": 90, "texture": "#1"},
				"south": {"uv": [9, 9, 10, 6], "rotation": 90, "texture": "#1"},
				"west": {"uv": [10, 6, 9, 7], "rotation": 270, "texture": "#1"},
				"up": {"uv": [9, 6, 10, 9], "rotation": 270, "texture": "#1"},
				"down": {"uv": [9, 6, 10, 9], "rotation": 270, "texture": "#1"}
			}
		},
		{
			"name": "stick_7",
			"from": [14, -7, 8],
			"to": [17, -6, 9],
			"rotation": {"angle": 45, "axis": "z", "origin": [0, 0, 0]},
			"faces": {
				"north": {"uv": [8, 7, 9, 10], "rotation": 90, "texture": "#1"},
				"east": {"uv": [8, 9, 9, 10], "rotation": 90, "texture": "#1"},
				"south": {"uv": [8, 10, 9, 7], "rotation": 90, "texture": "#1"},
				"west": {"uv": [9, 7, 8, 8], "rotation": 270, "texture": "#1"},
				"up": {"uv": [8, 7, 9, 10], "rotation": 270, "texture": "#1"},
				"down": {"uv": [8, 7, 9, 10], "rotation": 270, "texture": "#1"}
			}
		},
		{
			"name": "stick_8",
			"from": [15, -6, 8],
			"to": [18, -5, 9],
			"rotation": {"angle": 45, "axis": "z", "origin": [0, 0, 0]},
			"faces": {
				"north": {"uv": [7, 8, 8, 11], "rotation": 90, "texture": "#1"},
				"east": {"uv": [7, 10, 8, 11], "rotation": 90, "texture": "#1"},
				"south": {"uv": [7, 11, 8, 8], "rotation": 90, "texture": "#1"},
				"west": {"uv": [8, 8, 7, 9], "rotation": 270, "texture": "#1"},
				"up": {"uv": [7, 8, 8, 11], "rotation": 270, "texture": "#1"},
				"down": {"uv": [7, 8, 8, 11], "rotation": 270, "texture": "#1"}
			}
		},
		{
			"name": "stick_9",
			"from": [16, -5, 8],
			"to": [19, -4, 9],
			"rotation": {"angle": 45, "axis": "z", "origin": [0, 0, 0]},
			"faces": {
				"north": {"uv": [6, 9, 7, 12], "rotation": 90, "texture": "#1"},
				"east": {"uv": [6, 11, 7, 12], "rotation": 90, "texture": "#1"},
				"south": {"uv": [6, 12, 7, 9], "rotation": 90, "texture": "#1"},
				"west": {"uv": [7, 9, 6, 10], "rotation": 270, "texture": "#1"},
				"up": {"uv": [6, 9, 7, 12], "rotation": 270, "texture": "#1"},
				"down": {"uv": [6, 9, 7, 12], "rotation": 270, "texture": "#1"}
			}
		},
		{
			"name": "stick_10",
			"from": [17, -4, 8],
			"to": [20, -3, 9],
			"rotation": {"angle": 45, "axis": "z", "origin": [0, 0, 0]},
			"faces": {
				"north": {"uv": [5, 10, 6, 13], "rotation": 90, "texture": "#1"},
				"east": {"uv": [5, 12, 6, 13], "rotation": 90, "texture": "#1"},
				"south": {"uv": [5, 13, 6, 10], "rotation": 90, "texture": "#1"},
				"west": {"uv": [6, 10, 5, 11], "rotation": 270, "texture": "#1"},
				"up": {"uv": [5, 10, 6, 13], "rotation": 270, "texture": "#1"},
				"down": {"uv": [5, 10, 6, 13], "rotation": 270, "texture": "#1"}
			}
		},
		{
			"name": "stick_11",
			"from": [18, -3, 8],
			"to": [21, -2, 9],
			"rotation": {"angle": 45, "axis": "z", "origin": [0, 0, 0]},
			"faces": {
				"north": {"uv": [4, 11, 5, 14], "rotation": 90, "texture": "#1"},
				"east": {"uv": [4, 13, 5, 14], "rotation": 90, "texture": "#1"},
				"south": {"uv": [4, 14, 5, 11], "rotation": 90, "texture": "#1"},
				"west": {"uv": [5, 11, 4, 12], "rotation": 270, "texture": "#1"},
				"up": {"uv": [4, 11, 5, 14], "rotation": 270, "texture": "#1"},
				"down": {"uv": [4, 11, 5, 14], "rotation": 270, "texture": "#1"}
			}
		},
		{
			"name": "stick_12",
			"from": [19, -2, 8],
			"to": [22, -1, 9],
			"rotation": {"angle": 45, "axis": "z", "origin": [0, 0, 0]},
			"faces": {
				"north": {"uv": [3, 12, 4, 15], "rotation": 90, "texture": "#1"},
				"east": {"uv": [3, 14, 4, 15], "rotation": 90, "texture": "#1"},
				"south": {"uv": [3, 15, 4, 12], "rotation": 90, "texture": "#1"},
				"west": {"uv": [4, 12, 3, 13], "rotation": 270, "texture": "#1"},
				"up": {"uv": [3, 12, 4, 15], "rotation": 270, "texture": "#1"},
				"down": {"uv": [3, 12, 4, 15], "rotation": 270, "texture": "#1"}
			}
		},
		{
			"name": "stick_13",
			"from": [20, -1, 8],
			"to": [21, 0, 9],
			"rotation": {"angle": 45, "axis": "z", "origin": [0, 0, 0]},
			"faces": {
				"north": {"uv": [2, 14, 3, 15], "rotation": 90, "texture": "#1"},
				"east": {"uv": [2, 14, 3, 15], "rotation": 90, "texture": "#1"},
				"south": {"uv": [2, 14, 3, 15], "rotation": 90, "texture": "#1"},
				"west": {"uv": [2, 14, 3, 15], "rotation": 90, "texture": "#1"},
				"up": {"uv": [2, 14, 3, 15], "rotation": 90, "texture": "#1"},
				"down": {"uv": [2, 14, 3, 15], "rotation": 90, "texture": "#1"}
			}
		},
		{
			"name": "stick_1",
			"from": [15, 15, -5],
			"to": [16, 16, -2],
			"rotation": {"angle": -45, "axis": "y", "origin": [0, 0, 0]},
			"faces": {
				"north": {"uv": [13, 3, 12, 4], "texture": "#1"},
				"east": {"uv": [12, 3, 13, 6], "rotation": 90, "texture": "#1"},
				"south": {"uv": [12, 5, 13, 6], "texture": "#1"},
				"west": {"uv": [12, 3, 13, 6], "rotation": 270, "texture": "#1"},
				"up": {"uv": [12, 3, 13, 6], "texture": "#1"},
				"down": {"uv": [12, 6, 13, 3], "texture": "#1"}
			}
		},
		{
			"name": "stick_2",
			"from": [14, 15, -4],
			"to": [15, 16, -1],
			"rotation": {"angle": -45, "axis": "y", "origin": [0, 0, 0]},
			"faces": {
				"north": {"uv": [12, 4, 11, 5], "texture": "#1"},
				"east": {"uv": [11, 4, 12, 7], "rotation": 90, "texture": "#1"},
				"south": {"uv": [11, 6, 12, 7], "texture": "#1"},
				"west": {"uv": [11, 4, 12, 7], "rotation": 270, "texture": "#1"},
				"up": {"uv": [11, 4, 12, 7], "texture": "#1"},
				"down": {"uv": [11, 7, 12, 4], "texture": "#1"}
			}
		},
		{
			"name": "stick_3",
			"from": [11, 15, 12],
			"to": [12, 16, 15],
			"rotation": {"angle": 22.5, "axis": "y", "origin": [0, 0, 0]},
			"faces": {
				"north": {"uv": [12, 4, 11, 5], "texture": "#1"},
				"east": {"uv": [11, 4, 12, 7], "rotation": 90, "texture": "#1"},
				"south": {"uv": [11, 6, 12, 7], "texture": "#1"},
				"west": {"uv": [11, 4, 12, 7], "rotation": 270, "texture": "#1"},
				"up": {"uv": [11, 4, 12, 7], "texture": "#1"},
				"down": {"uv": [11, 7, 12, 4], "texture": "#1"}
			}
		},
		{
			"name": "stick_4",
			"from": [10, 16, 12],
			"to": [11, 17, 15],
			"rotation": {"angle": 22.5, "axis": "y", "origin": [0, 0, 0]},
			"faces": {
				"north": {"uv": [12, 4, 11, 5], "texture": "#1"},
				"east": {"uv": [11, 4, 12, 7], "rotation": 90, "texture": "#1"},
				"south": {"uv": [11, 6, 12, 7], "texture": "#1"},
				"west": {"uv": [11, 4, 12, 7], "rotation": 270, "texture": "#1"},
				"up": {"uv": [11, 4, 12, 7], "texture": "#1"},
				"down": {"uv": [11, 7, 12, 4], "texture": "#1"}
			}
		},
		{
			"name": "stick_4",
			"from": [16, 15, -5],
			"to": [17, 16, -4],
			"rotation": {"angle": -45, "axis": "y", "origin": [0, 0, 0]},
			"faces": {
				"north": {"uv": [14, 4, 13, 5], "texture": "#1"},
				"east": {"uv": [13, 4, 14, 5], "rotation": 90, "texture": "#1"},
				"south": {"uv": [13, 4, 14, 5], "texture": "#1"},
				"west": {"uv": [13, 4, 14, 5], "rotation": 270, "texture": "#1"},
				"up": {"uv": [13, 4, 14, 5], "texture": "#1"},
				"down": {"uv": [13, 5, 14, 4], "texture": "#1"}
			}
		},
		{
			"name": "stick_5",
			"from": [16, 14, -5],
			"to": [17, 15, -4],
			"rotation": {"angle": -45, "axis": "y", "origin": [0, 0, 0]},
			"faces": {
				"north": {"uv": [14, 4, 13, 5], "texture": "#1"},
				"east": {"uv": [13, 4, 14, 5], "rotation": 90, "texture": "#1"},
				"south": {"uv": [13, 4, 14, 5], "texture": "#1"},
				"west": {"uv": [13, 4, 14, 5], "rotation": 270, "texture": "#1"},
				"up": {"uv": [13, 4, 14, 5], "texture": "#1"},
				"down": {"uv": [13, 5, 14, 4], "texture": "#1"}
			}
		},
		{
			"name": "stick_6",
			"from": [17, 14, -6],
			"to": [18, 15, -5],
			"rotation": {"angle": -45, "axis": "y", "origin": [0, 0, 0]},
			"faces": {
				"north": {"uv": [14, 4, 13, 5], "texture": "#1"},
				"east": {"uv": [13, 4, 14, 5], "rotation": 90, "texture": "#1"},
				"south": {"uv": [13, 4, 14, 5], "texture": "#1"},
				"west": {"uv": [13, 4, 14, 5], "rotation": 270, "texture": "#1"},
				"up": {"uv": [13, 4, 14, 5], "texture": "#1"},
				"down": {"uv": [13, 5, 14, 4], "texture": "#1"}
			}
		},
		{
			"name": "stick_4",
			"from": [13, 15, -3],
			"to": [14, 16, 0],
			"rotation": {"angle": -45, "axis": "y", "origin": [0, 0, 0]},
			"faces": {
				"north": {"uv": [11, 5, 10, 6], "texture": "#1"},
				"east": {"uv": [10, 5, 11, 8], "rotation": 90, "texture": "#1"},
				"south": {"uv": [10, 7, 11, 8], "texture": "#1"},
				"west": {"uv": [10, 5, 11, 8], "rotation": 270, "texture": "#1"},
				"up": {"uv": [10, 5, 11, 8], "texture": "#1"},
				"down": {"uv": [10, 8, 11, 5], "texture": "#1"}
			}
		},
		{
			"name": "stick_5",
			"from": [12, 15, -2],
			"to": [13, 16, 1],
			"rotation": {"angle": -45, "axis": "y", "origin": [0, 0, 0]},
			"faces": {
				"north": {"uv": [10, 6, 9, 7], "texture": "#1"},
				"east": {"uv": [9, 6, 10, 9], "rotation": 90, "texture": "#1"},
				"south": {"uv": [9, 8, 10, 9], "texture": "#1"},
				"west": {"uv": [9, 6, 10, 9], "rotation": 270, "texture": "#1"},
				"up": {"uv": [9, 6, 10, 9], "texture": "#1"},
				"down": {"uv": [9, 9, 10, 6], "texture": "#1"}
			}
		},
		{
			"name": "stick_6",
			"from": [11, 15, -1],
			"to": [12, 16, 2],
			"rotation": {"angle": -45, "axis": "y", "origin": [0, 0, 0]},
			"faces": {
				"north": {"uv": [9, 7, 8, 8], "texture": "#1"},
				"east": {"uv": [8, 7, 9, 10], "rotation": 90, "texture": "#1"},
				"south": {"uv": [8, 9, 9, 10], "texture": "#1"},
				"west": {"uv": [8, 7, 9, 10], "rotation": 270, "texture": "#1"},
				"up": {"uv": [8, 7, 9, 10], "texture": "#1"},
				"down": {"uv": [8, 10, 9, 7], "texture": "#1"}
			}
		},
		{
			"name": "stick_7",
			"from": [10, 15, 0],
			"to": [11, 16, 3],
			"rotation": {"angle": -45, "axis": "y", "origin": [0, 0, 0]},
			"faces": {
				"north": {"uv": [8, 8, 7, 9], "texture": "#1"},
				"east": {"uv": [7, 8, 8, 11], "rotation": 90, "texture": "#1"},
				"south": {"uv": [7, 10, 8, 11], "texture": "#1"},
				"west": {"uv": [7, 8, 8, 11], "rotation": 270, "texture": "#1"},
				"up": {"uv": [7, 8, 8, 11], "texture": "#1"},
				"down": {"uv": [7, 11, 8, 8], "texture": "#1"}
			}
		},
		{
			"name": "stick_8",
			"from": [9, 15, 1],
			"to": [10, 16, 4],
			"rotation": {"angle": -45, "axis": "y", "origin": [0, 0, 0]},
			"faces": {
				"north": {"uv": [7, 9, 6, 10], "texture": "#1"},
				"east": {"uv": [6, 9, 7, 12], "rotation": 90, "texture": "#1"},
				"south": {"uv": [6, 11, 7, 12], "texture": "#1"},
				"west": {"uv": [6, 9, 7, 12], "rotation": 270, "texture": "#1"},
				"up": {"uv": [6, 9, 7, 12], "texture": "#1"},
				"down": {"uv": [6, 12, 7, 9], "texture": "#1"}
			}
		},
		{
			"name": "stick_9",
			"from": [8, 15, 2],
			"to": [9, 16, 5],
			"rotation": {"angle": -45, "axis": "y", "origin": [0, 0, 0]},
			"faces": {
				"north": {"uv": [6, 10, 5, 11], "texture": "#1"},
				"east": {"uv": [5, 10, 6, 13], "rotation": 90, "texture": "#1"},
				"south": {"uv": [5, 12, 6, 13], "texture": "#1"},
				"west": {"uv": [5, 10, 6, 13], "rotation": 270, "texture": "#1"},
				"up": {"uv": [5, 10, 6, 13], "texture": "#1"},
				"down": {"uv": [5, 13, 6, 10], "texture": "#1"}
			}
		},
		{
			"name": "stick_10",
			"from": [6, 16, 4],
			"to": [7, 17, 7],
			"rotation": {"angle": -45, "axis": "y", "origin": [0, 0, 0]},
			"faces": {
				"north": {"uv": [6, 10, 5, 11], "texture": "#1"},
				"east": {"uv": [5, 10, 6, 13], "rotation": 90, "texture": "#1"},
				"south": {"uv": [5, 12, 6, 13], "texture": "#1"},
				"west": {"uv": [5, 10, 6, 13], "rotation": 270, "texture": "#1"},
				"up": {"uv": [5, 10, 6, 13], "texture": "#1"},
				"down": {"uv": [5, 13, 6, 10], "texture": "#1"}
			}
		},
		{
			"name": "stick_10",
			"from": [7, 15, 4],
			"to": [8, 16, 6],
			"rotation": {"angle": -45, "axis": "y", "origin": [0, 0, 0]},
			"faces": {
				"north": {"uv": [5, 11, 4, 12], "texture": "#1"},
				"east": {"uv": [4, 11, 5, 14], "rotation": 90, "texture": "#1"},
				"south": {"uv": [4, 13, 5, 14], "texture": "#1"},
				"west": {"uv": [4, 11, 5, 14], "rotation": 270, "texture": "#1"},
				"up": {"uv": [4, 11, 5, 14], "texture": "#1"},
				"down": {"uv": [4, 14, 5, 11], "texture": "#1"}
			}
		},
		{
			"name": "string_14",
			"from": [7.5, 10, 10],
			"to": [8.5, 11, 11],
			"faces": {
				"north": {"uv": [2, 9, 3, 10], "rotation": 270, "texture": "#4"},
				"east": {"uv": [2, 9, 3, 10], "rotation": 270, "texture": "#4"},
				"south": {"uv": [12, 9, 13, 10], "rotation": 270, "texture": "#4"},
				"west": {"uv": [2, 9, 3, 10], "rotation": 270, "texture": "#4"},
				"up": {"uv": [2, 9, 3, 10], "rotation": 90, "texture": "#4"},
				"down": {"uv": [2, 9, 3, 10], "rotation": 90, "texture": "#4"}
			}
		},
		{
			"name": "string_15",
			"from": [7.5, 9, 9],
			"to": [8.5, 10, 10],
			"faces": {
				"north": {"uv": [2, 9, 3, 10], "rotation": 270, "texture": "#4"},
				"east": {"uv": [2, 9, 3, 10], "rotation": 270, "texture": "#4"},
				"south": {"uv": [12, 9, 13, 10], "rotation": 270, "texture": "#4"},
				"west": {"uv": [2, 9, 3, 10], "rotation": 270, "texture": "#4"},
				"up": {"uv": [2, 9, 3, 10], "rotation": 90, "texture": "#4"},
				"down": {"uv": [2, 9, 3, 10], "rotation": 90, "texture": "#4"}
			}
		},
		{
			"name": "string_16",
			"from": [7.5, 8, 9],
			"to": [8.5, 9, 10],
			"faces": {
				"north": {"uv": [2, 9, 3, 10], "rotation": 270, "texture": "#4"},
				"east": {"uv": [2, 9, 3, 10], "rotation": 270, "texture": "#4"},
				"south": {"uv": [12, 9, 13, 10], "rotation": 270, "texture": "#4"},
				"west": {"uv": [2, 9, 3, 10], "rotation": 270, "texture": "#4"},
				"up": {"uv": [2, 9, 3, 10], "rotation": 90, "texture": "#4"},
				"down": {"uv": [2, 9, 3, 10], "rotation": 90, "texture": "#4"}
			}
		},
		{
			"name": "string_15",
			"from": [7.5, 11, 11],
			"to": [8.5, 12, 12],
			"faces": {
				"north": {"uv": [2, 9, 3, 10], "rotation": 270, "texture": "#4"},
				"east": {"uv": [2, 9, 3, 10], "rotation": 270, "texture": "#4"},
				"south": {"uv": [12, 9, 13, 10], "rotation": 270, "texture": "#4"},
				"west": {"uv": [2, 9, 3, 10], "rotation": 270, "texture": "#4"},
				"up": {"uv": [2, 9, 3, 10], "rotation": 90, "texture": "#4"},
				"down": {"uv": [2, 9, 3, 10], "rotation": 90, "texture": "#4"}
			}
		},
		{
			"name": "string_16",
			"from": [7.5, 15, 10],
			"to": [8.5, 16, 12],
			"faces": {
				"north": {"uv": [8, 11, 9, 12], "rotation": 270, "texture": "#4"},
				"east": {"uv": [8, 11, 9, 12], "rotation": 270, "texture": "#4"},
				"south": {"uv": [8, 11, 9, 12], "rotation": 270, "texture": "#4"},
				"west": {"uv": [8, 11, 9, 12], "rotation": 270, "texture": "#4"},
				"up": {"uv": [8, 11, 9, 12], "rotation": 90, "texture": "#4"},
				"down": {"uv": [8, 11, 9, 12], "rotation": 90, "texture": "#4"}
			}
		},
		{
			"name": "string_18",
			"from": [6.5, 16, 8],
			"to": [7.5, 17, 11],
			"faces": {
				"north": {"uv": [11, 11, 12, 12], "rotation": 270, "texture": "#4"},
				"east": {"uv": [11, 11, 12, 12], "rotation": 270, "texture": "#4"},
				"south": {"uv": [11, 11, 12, 12], "rotation": 270, "texture": "#4"},
				"west": {"uv": [11, 11, 12, 12], "rotation": 270, "texture": "#4"},
				"up": {"uv": [11, 11, 12, 12], "rotation": 90, "texture": "#4"},
				"down": {"uv": [11, 11, 12, 12], "rotation": 90, "texture": "#4"}
			}
		},
		{
			"name": "string_19",
			"from": [5.5, 16, 7],
			"to": [6.5, 17, 9],
			"faces": {
				"north": {"uv": [11, 11, 12, 12], "rotation": 270, "texture": "#4"},
				"east": {"uv": [11, 11, 12, 12], "rotation": 270, "texture": "#4"},
				"south": {"uv": [11, 11, 12, 12], "rotation": 270, "texture": "#4"},
				"west": {"uv": [11, 11, 12, 12], "rotation": 270, "texture": "#4"},
				"up": {"uv": [11, 11, 12, 12], "rotation": 90, "texture": "#4"},
				"down": {"uv": [11, 11, 12, 12], "rotation": 90, "texture": "#4"}
			}
		},
		{
			"name": "string_20",
			"from": [4.5, 16, 7],
			"to": [5.5, 17, 8],
			"faces": {
				"north": {"uv": [11, 11, 12, 12], "rotation": 270, "texture": "#4"},
				"east": {"uv": [11, 11, 12, 12], "rotation": 270, "texture": "#4"},
				"south": {"uv": [11, 11, 12, 12], "rotation": 270, "texture": "#4"},
				"west": {"uv": [11, 11, 12, 12], "rotation": 270, "texture": "#4"},
				"up": {"uv": [11, 11, 12, 12], "rotation": 90, "texture": "#4"},
				"down": {"uv": [11, 11, 12, 12], "rotation": 90, "texture": "#4"}
			}
		},
		{
			"name": "string_21",
			"from": [3.5, 13, 6],
			"to": [4.5, 15, 7],
			"faces": {
				"north": {"uv": [11, 11, 12, 12], "rotation": 270, "texture": "#4"},
				"east": {"uv": [11, 11, 12, 12], "rotation": 270, "texture": "#4"},
				"south": {"uv": [11, 11, 12, 12], "rotation": 270, "texture": "#4"},
				"west": {"uv": [11, 11, 12, 12], "rotation": 270, "texture": "#4"},
				"up": {"uv": [11, 11, 12, 12], "rotation": 90, "texture": "#4"},
				"down": {"uv": [11, 11, 12, 12], "rotation": 90, "texture": "#4"}
			}
		},
		{
			"name": "string_22",
			"from": [4.5, 15, 6],
			"to": [5.5, 16, 7],
			"faces": {
				"north": {"uv": [11, 11, 12, 12], "rotation": 270, "texture": "#4"},
				"east": {"uv": [11, 11, 12, 12], "rotation": 270, "texture": "#4"},
				"south": {"uv": [11, 11, 12, 12], "rotation": 270, "texture": "#4"},
				"west": {"uv": [11, 11, 12, 12], "rotation": 270, "texture": "#4"},
				"up": {"uv": [11, 11, 12, 12], "rotation": 90, "texture": "#4"},
				"down": {"uv": [11, 11, 12, 12], "rotation": 90, "texture": "#4"}
			}
		},
		{
			"name": "string_23",
			"from": [7.5, 12, 11],
			"to": [8.5, 15, 12],
			"faces": {
				"north": {"uv": [8, 12, 10, 11], "rotation": 270, "texture": "#4"},
				"east": {"uv": [8, 12, 10, 11], "rotation": 270, "texture": "#4"},
				"south": {"uv": [8, 12, 10, 11], "rotation": 270, "texture": "#4"},
				"west": {"uv": [8, 12, 10, 11], "rotation": 270, "texture": "#4"},
				"up": {"uv": [8, 12, 10, 11], "rotation": 90, "texture": "#4"},
				"down": {"uv": [8, 12, 10, 11], "rotation": 90, "texture": "#4"}
			}
		}
	],
	"display": {
		"gui": {
			"rotation": [18, 139, 0],
			"scale": [0.7, 0.66, 1]
		},
		"fixed": {
			"translation": [0, 0.25, -3.25]
		}
	},
	"groups": [
		{
			"name": "stick",
			"origin": [8, 8, 8],
			"color": 0,
			"children": [0, 1, 2, 3, 4, 5, 6, 7, 8, 9, 10, 11, 12, 13, 14, 15, 16, 17, 18, 19, 20, 21, 22, 23, 24, 25, 26]
		},
		{
			"name": "stick",
			"origin": [8, 8, 8],
			"color": 0,
			"children": [27, 28, 29, 30, 31, 32, 33, 34, 35, 36, 37, 38, 39, 40, 41]
		},
		{
			"name": "string",
			"origin": [8, 8, 8],
			"color": 0,
			"children": [42, 43, 44, 45, 46, 47, 48, 49, 50, 51, 52]
		}
	]
}