{
    "type": "minecraft:crafting_shapeless",
    "ingredients": [
        {
            "tag": "minecraft:wool"
        },
        {
            "item": "bewarethedark:boards"
        }
    ],
    "result": {
        "item": "bewarethedark:carpeted_flooring",
        "count": 6
    }
}