{
    "type": "minecraft:crafting_shapeless",
    "ingredients": [
        {
            "item": "bewarethedark:rocky_turf"
        },
        {
            "item": "bewarethedark:boards"
        }
    ],
    "result": {
        "item": "bewarethedark:cobblestones",
        "count": 6
    }
}