{
    "type": "minecraft:crafting_shapeless",
    "ingredients": [
        {
            "item": "bewarethedark:boards"
        }
    ],
    "result": {
        "item": "bewarethedark:wooden_flooring",
        "count": 6
    }
}