{
	"credit": "Made with Blockbench",
	"parent": "block/block",
	"textures": {
		"1": "block/dark_oak_log",
		"2": "entity/lead_knot",
		"3": "bewarethedark:blocks/light/lantern",
		"particle": "block/lantern"
	},
	"elements": [
		{
			"from": [6, 1, 6],
			"to": [10, 6, 10],
			"faces": {
				"north": {"uv": [1, 3, 5, 8], "texture": "#3"},
				"east": {"uv": [1, 3, 5, 8], "texture": "#3"},
				"south": {"uv": [1, 3, 5, 8], "texture": "#3"},
				"west": {"uv": [1, 3, 5, 8], "texture": "#3"},
				"up": {"uv": [1, 4, 5, 8], "texture": "#3"},
				"down": {"uv": [1, 4, 5, 8], "texture": "#3", "cullface": "down"}
			}
		},
		{
			"from": [6, 7, 6],
			"to": [10, 8, 10],
			"faces": {
				"north": {"uv": [1, 1, 5, 2], "texture": "#3"},
				"east": {"uv": [1, 1, 5, 2], "texture": "#3"},
				"south": {"uv": [1, 1, 5, 2], "texture": "#3"},
				"west": {"uv": [1, 1, 5, 2], "texture": "#3"},
				"up": {"uv": [1, 4, 5, 8], "texture": "#3"}
			}
		},
		{
			"from": [7, 8, 7],
			"to": [9, 9, 9],
			"faces": {
				"north": {"uv": [1, 1, 5, 2], "texture": "#3"},
				"east": {"uv": [1, 1, 5, 2], "texture": "#3"},
				"south": {"uv": [1, 1, 5, 2], "texture": "#3"},
				"west": {"uv": [1, 1, 5, 2], "texture": "#3"},
				"up": {"uv": [2, 5, 4, 7], "texture": "#3"}
			}
		},
		{
			"from": [6, 1, 10],
			"to": [10, 2, 11],
			"faces": {
				"north": {"uv": [9, 6, 11, 6.5], "texture": "#2"},
				"east": {"uv": [10, 5, 11, 5.5], "texture": "#2"},
				"south": {"uv": [9, 6, 11, 6.5], "texture": "#2"},
				"west": {"uv": [5, 5, 6, 5.5], "texture": "#2"},
				"up": {"uv": [9, 6, 11, 6.5], "texture": "#2"},
				"down": {"uv": [9, 6, 11, 6.5], "texture": "#2"}
			}
		},
		{
			"from": [6, 6, 10],
			"to": [10, 7, 11],
			"faces": {
				"north": {"uv": [9, 6, 11, 6.5], "texture": "#2"},
				"east": {"uv": [10, 5, 11, 5.5], "texture": "#2"},
				"south": {"uv": [9, 6, 11, 6.5], "texture": "#2"},
				"west": {"uv": [5, 5, 6, 5.5], "texture": "#2"},
				"up": {"uv": [9, 6, 11, 6.5], "texture": "#2"},
				"down": {"uv": [9, 6, 11, 6.5], "texture": "#2"}
			}
		},
		{
			"from": [6, 6, 10],
			"to": [10, 7, 11],
			"faces": {
				"north": {"uv": [9, 6, 11, 6.5], "texture": "#2"},
				"east": {"uv": [10, 5, 11, 5.5], "texture": "#2"},
				"south": {"uv": [9, 6, 11, 6.5], "texture": "#2"},
				"west": {"uv": [5, 5, 6, 5.5], "texture": "#2"},
				"up": {"uv": [9, 6, 11, 6.5], "texture": "#2"},
				"down": {"uv": [9, 6, 11, 6.5], "texture": "#2"}
			}
		},
		{
			"from": [6, 6, 5],
			"to": [10, 7, 6],
			"faces": {
				"north": {"uv": [9, 6, 11, 6.5], "texture": "#2"},
				"east": {"uv": [10, 5, 11, 5.5], "texture": "#2"},
				"south": {"uv": [9, 6, 11, 6.5], "texture": "#2"},
				"west": {"uv": [5, 5, 6, 5.5], "texture": "#2"},
				"up": {"uv": [9, 6, 11, 6.5], "texture": "#2"},
				"down": {"uv": [9, 6, 11, 6.5], "texture": "#2"}
			}
		},
		{
			"from": [6, 1, 5],
			"to": [10, 2, 6],
			"faces": {
				"north": {"uv": [9, 6, 11, 6.5], "texture": "#2"},
				"east": {"uv": [10, 5, 11, 5.5], "texture": "#2"},
				"south": {"uv": [9, 6, 11, 6.5], "texture": "#2"},
				"west": {"uv": [5, 5, 6, 5.5], "texture": "#2"},
				"up": {"uv": [9, 6, 11, 6.5], "texture": "#2"},
				"down": {"uv": [9, 6, 11, 6.5], "texture": "#2"}
			}
		},
		{
			"from": [5, 0, 5],
			"to": [11, 1, 11],
			"faces": {
				"north": {"uv": [0, 0, 6, 1], "texture": "#1"},
				"east": {"uv": [0, 0, 6, 1], "texture": "#1"},
				"south": {"uv": [0, 0, 6, 1], "texture": "#1"},
				"west": {"uv": [0, 0, 6, 1], "texture": "#1"},
				"up": {"uv": [0, 0, 6, 6], "texture": "#1"},
				"down": {"uv": [0, 0, 6, 6], "texture": "#1"}
			}
		},
		{
			"from": [10, 2, 5],
			"to": [11, 6, 6],
			"faces": {
				"north": {"uv": [2, 0, 3, 5], "texture": "#1"},
				"east": {"uv": [2, 0, 3, 5], "texture": "#1"},
				"south": {"uv": [2, 0, 3, 5], "texture": "#1"},
				"west": {"uv": [2, 0, 3, 5], "texture": "#1"},
				"up": {"uv": [2, 0, 3, 1], "texture": "#1"},
				"down": {"uv": [2, 4, 3, 5], "texture": "#1"}
			}
		},
		{
			"from": [5, 2, 5],
			"to": [6, 6, 6],
			"faces": {
				"north": {"uv": [2, 0, 3, 5], "texture": "#1"},
				"east": {"uv": [2, 0, 3, 5], "texture": "#1"},
				"south": {"uv": [2, 0, 3, 5], "texture": "#1"},
				"west": {"uv": [2, 0, 3, 5], "texture": "#1"},
				"up": {"uv": [2, 0, 3, 1], "texture": "#1"},
				"down": {"uv": [2, 4, 3, 5], "texture": "#1"}
			}
		},
		{
			"from": [5, 2, 10],
			"to": [6, 6, 11],
			"faces": {
				"north": {"uv": [2, 0, 3, 5], "texture": "#1"},
				"east": {"uv": [2, 0, 3, 5], "texture": "#1"},
				"south": {"uv": [2, 0, 3, 5], "texture": "#1"},
				"west": {"uv": [2, 0, 3, 5], "texture": "#1"},
				"up": {"uv": [2, 0, 3, 1], "texture": "#1"},
				"down": {"uv": [2, 4, 3, 5], "texture": "#1"}
			}
		},
		{
			"from": [10, 2, 10],
			"to": [11, 6, 11],
			"faces": {
				"north": {"uv": [2, 0, 3, 5], "texture": "#1"},
				"east": {"uv": [2, 0, 3, 5], "texture": "#1"},
				"south": {"uv": [2, 0, 3, 5], "texture": "#1"},
				"west": {"uv": [2, 0, 3, 5], "texture": "#1"},
				"up": {"uv": [2, 0, 3, 1], "texture": "#1"},
				"down": {"uv": [2, 4, 3, 5], "texture": "#1"}
			}
		},
		{
			"from": [10, 6, 5],
			"to": [11, 7, 11],
			"faces": {
				"north": {"uv": [5.5, 4.5, 6.5, 5], "texture": "#2"},
				"east": {"uv": [3, 3, 6, 3.5], "texture": "#2"},
				"south": {"uv": [2.5, 4.5, 3.5, 5], "texture": "#2"},
				"west": {"uv": [3, 3, 6, 3.5], "texture": "#2"},
				"up": {"uv": [10, 3.5, 10.5, 6.5], "texture": "#2"},
				"down": {"uv": [9.5, 3.5, 10, 6.5], "texture": "#2"}
			}
		},
		{
			"from": [5, 6, 5],
			"to": [6, 7, 11],
			"faces": {
				"north": {"uv": [5.5, 4.5, 6.5, 5], "texture": "#2"},
				"east": {"uv": [3, 3, 6, 3.5], "texture": "#2"},
				"south": {"uv": [2.5, 4.5, 3.5, 5], "texture": "#2"},
				"west": {"uv": [3, 3, 6, 3.5], "texture": "#2"},
				"up": {"uv": [10, 3.5, 10.5, 6.5], "texture": "#2"},
				"down": {"uv": [9.5, 3.5, 10, 6.5], "texture": "#2"}
			}
		},
		{
			"from": [5, 1, 5],
			"to": [6, 2, 11],
			"faces": {
				"north": {"uv": [5.5, 4.5, 6.5, 5], "texture": "#2"},
				"east": {"uv": [3, 3, 6, 3.5], "texture": "#2"},
				"south": {"uv": [2.5, 4.5, 3.5, 5], "texture": "#2"},
				"west": {"uv": [3, 3, 6, 3.5], "texture": "#2"},
				"up": {"uv": [10, 3.5, 10.5, 6.5], "texture": "#2"},
				"down": {"uv": [9.5, 3.5, 10, 6.5], "texture": "#2"}
			}
		},
		{
			"from": [10, 1, 5],
			"to": [11, 2, 11],
			"faces": {
				"north": {"uv": [5.5, 4.5, 6.5, 5], "texture": "#2"},
				"east": {"uv": [3, 3, 6, 3.5], "texture": "#2"},
				"south": {"uv": [2.5, 4.5, 3.5, 5], "texture": "#2"},
				"west": {"uv": [3, 3, 6, 3.5], "texture": "#2"},
				"up": {"uv": [10, 3.5, 10.5, 6.5], "texture": "#2"},
				"down": {"uv": [9.5, 3.5, 10, 6.5], "texture": "#2"}
			}
		},
		{
			"from": [10, 7, 10],
			"to": [11, 8, 11],
			"faces": {
				"north": {"uv": [0, 0, 1, 1], "texture": "#1"},
				"east": {"uv": [0, 0, 1, 1], "texture": "#1"},
				"south": {"uv": [0, 0, 1, 1], "texture": "#1"},
				"west": {"uv": [0, 0, 1, 1], "texture": "#1"},
				"up": {"uv": [0, 0, 1, 1], "texture": "#1"},
				"down": {"uv": [0, 0, 1, 1], "texture": "#1"}
			}
		},
		{
			"from": [10, 7, 5],
			"to": [11, 8, 6],
			"faces": {
				"north": {"uv": [0, 0, 1, 1], "texture": "#1"},
				"east": {"uv": [0, 0, 1, 1], "texture": "#1"},
				"south": {"uv": [0, 0, 1, 1], "texture": "#1"},
				"west": {"uv": [0, 0, 1, 1], "texture": "#1"},
				"up": {"uv": [0, 0, 1, 1], "texture": "#1"},
				"down": {"uv": [0, 0, 1, 1], "texture": "#1"}
			}
		},
		{
			"from": [5, 7, 5],
			"to": [6, 8, 6],
			"faces": {
				"north": {"uv": [0, 0, 1, 1], "texture": "#1"},
				"east": {"uv": [0, 0, 1, 1], "texture": "#1"},
				"south": {"uv": [0, 0, 1, 1], "texture": "#1"},
				"west": {"uv": [0, 0, 1, 1], "texture": "#1"},
				"up": {"uv": [0, 0, 1, 1], "texture": "#1"},
				"down": {"uv": [0, 0, 1, 1], "texture": "#1"}
			}
		},
		{
			"from": [5, 7, 10],
			"to": [6, 8, 11],
			"faces": {
				"north": {"uv": [0, 0, 1, 1], "texture": "#1"},
				"east": {"uv": [0, 0, 1, 1], "texture": "#1"},
				"south": {"uv": [0, 0, 1, 1], "texture": "#1"},
				"west": {"uv": [0, 0, 1, 1], "texture": "#1"},
				"up": {"uv": [0, 0, 1, 1], "texture": "#1"},
				"down": {"uv": [0, 0, 1, 1], "texture": "#1"}
			}
		}
	],
	"display": {
		"thirdperson_righthand": {
			"translation": [0, 2, 0]
		},
		"thirdperson_lefthand": {
			"translation": [0, 2, 0]
		},
		"firstperson_righthand": {
			"translation": [0, 3.75, 0]
		},
		"firstperson_lefthand": {
			"translation": [0, 3.75, 0]
		},
		"gui": {
			"rotation": [32, -42, 0],
			"scale": [0.8, 0.8, 0.8]
		}
	}
}