{
  "type": "bewarethedark:crock_pot",
  "ingredients": [
    {
      "tag": "bewarethedark:crockpot_filler_ffoj"
    },
	{
      "tag": "bewarethedark:crockpot_filler_ffoj"
    },
	{
      "tag": "bewarethedark:crockpot_filler_ffoj"
    },
	{
      "tag": "bewarethedark:crockpot_filler_ffoj"
    }
  ],
  "output": {
    "item": "bewarethedark:fist_full_of_jam"
  },
  "time": 480
}