{
  "type": "bewarethedark:crock_pot",
  "ingredients": [
    {
      "tag": "bewarethedark:crockpot_filler_fishsticks"
    },
	{
      "tag": "bewarethedark:crockpot_fish"
    },
	{
      "tag": "bewarethedark:crockpot_filler_fishsticks"
    },
	{
      "tag": "bewarethedark:crockpot_twigs"
    }
  ],
  "output": {
    "item": "bewarethedark:fishsticks"
  },
  "time": 1920
}