{
    "parent": "block/cube",
    "textures": {
        "particle": "bewarethedark:blocks/natural/turf/marsh_turf_top",
        "down": "bewarethedark:blocks/natural/turf/marsh_turf_top",
        "up": "bewarethedark:blocks/natural/turf/marsh_turf_top",
        "west": "bewarethedark:blocks/natural/turf/marsh_turf_top",
      "east": "bewarethedark:blocks/natural/turf/marsh_turf_top",
	  "south": "bewarethedark:blocks/natural/turf/marsh_turf_top",
	  "north": "bewarethedark:blocks/natural/turf/marsh_turf_top"
    }
}