{
    "parent": "block/cube",
    "textures": {
        "particle": "bewarethedark:blocks/natural/rockyland_turf_top",
        "down": "bewarethedark:blocks/natural/rockyland_turf_top",
        "up": "bewarethedark:blocks/natural/rockyland_turf_top",
        "north": "bewarethedark:blocks/natural/rockyland_turf_top",
		"south": "bewarethedark:blocks/natural/rockyland_turf_top",
		"west": "bewarethedark:blocks/natural/rockyland_turf_top",
		"east": "bewarethedark:blocks/natural/rockyland_turf_top",
        "overlay": "bewarethedark:blocks/natural/rockyland_turf_top"
    }

}