{
  "type": "bewarethedark:crock_pot",
  "ingredients": [
    {
      "tag": "bewarethedark:crockpot_fish"
    },
	{
      "tag": "bewarethedark:crockpot_fish"
    },
	{
      "tag": "bewarethedark:crockpot_filler_ceviche"
    },
	{
      "tag": "bewarethedark:crockpot_ice"
    }
	
  ],
  "output": {
    "item": "bewarethedark:ceviche"
  },
  "time": 480
}