{
  "type": "minecraft:random_patch",
  "config": {
    "tries": 384,
    "xz_spread": 8,
    "y_spread": 8,
    "feature": {
      "feature": {
        "type": "minecraft:simple_block",
        "config": {
          "to_place": {
            "type": "minecraft:simple_state_provider",
            "state": {
              "Name": "bewarethedark:reeds",
              "Properties": {
                "age": "7"
              }
            }
          }
        }
      },
      "placement": [
        {
          "type": "minecraft:block_predicate_filter",
          "predicate": {
            "type": "minecraft:matching_blocks",
            "blocks": "minecraft:air"
          }
        }
      ]
    }
  }
}