{
    "type": "minecraft:crafting_shaped",
    "pattern": [
        "#"
    ],
    "key": {
        "#": {
            "item": "minecraft:honey_block"
        }
    },
    "result": {
        "item": "bewarethedark:honey",
        "count": 6
    }
}