{
    "type": "minecraft:crafting_shaped",
    
    "pattern":
    [
        "GGG",
        "MMM",
        "SSS"
    ],
    
    "key":
    {
        "G":
        {
            "item": "bewarethedark:cut_grass"
        },
		"S":
		{
		    "item": "bewarethedark:cut_stone"
		},
		"M":
		{
		    "item": "bewarethedark:manure"
		}
    },
    
    "result":
    {
        "item": "bewarethedark:improved_farm",
        "count": 1
    }
}