{
  "type": "bewarethedark:crock_pot",
  "ingredients": [
	{
      "tag": "bewarethedark:crockpot_filler_meatballs"
    },
	{
      "tag": "bewarethedark:crockpot_filler_meatballs"
    },
	{
      "tag": "bewarethedark:crockpot_filler_meatballs"
    },
	{
      "tag": "bewarethedark:crockpot_all_meat"
    }
  ],
  "output": {
    "item": "bewarethedark:meatballs"
  },
  "time": 720
}