{
  "type": "bewarethedark:crock_pot",
  "ingredients": [
	{
      "tag": "bewarethedark:crockpot_inputs"
    },
	{
      "item": "bewarethedark:mandrake"
    },
	{
      "tag": "bewarethedark:crockpot_inputs"
    },
	{
      "tag": "bewarethedark:crockpot_inputs"
    }
  ],
  "output": {
    "item": "bewarethedark:mandrake_soup"
  },
  "time": 3000
}