{
	"credit": "Made with Blockbench",
	"textures": {
		"particle": "bewarethedark:blocks/utility/campfire_log",
		"log": "bewarethedark:blocks/utility/campfire_log",
		"litlog": "bewarethedark:blocks/utility/campfire_log_lit",
		"fire": "bewarethedark:blocks/utility/campfire_fire"
	},
	"elements": [
		{
			"from": [8, 1, 0.8],
			"to": [8, 17, 15.2],
			"shade": false,
			"rotation": {"angle": 45, "axis": "y", "origin": [8, 8, 8], "rescale": true},
			"faces": {
				"east": {"uv": [0, 0, 16, 16], "texture": "#fire"},
				"west": {"uv": [0, 0, 16, 16], "texture": "#fire"}
			}
		},
		{
			"from": [0.8, 1, 8],
			"to": [15.2, 17, 8],
			"shade": false,
			"rotation": {"angle": 45, "axis": "y", "origin": [8, 8, 8], "rescale": true},
			"faces": {
				"north": {"uv": [0, 0, 16, 16], "texture": "#fire"},
				"south": {"uv": [0, 0, 16, 16], "texture": "#fire"}
			}
		},
		{
			"from": [6, 0, 0],
			"to": [10, 4, 16],
			"rotation": {"angle": 0, "axis": "y", "origin": [8, 8, 8]},
			"faces": {
				"north": {"uv": [0, 4, 4, 8], "texture": "#log", "cullface": "north"},
				"east": {"uv": [0, 0, 16, 4], "texture": "#log"},
				"south": {"uv": [0, 4, 4, 8], "texture": "#log", "cullface": "south"},
				"west": {"uv": [16, 1, 0, 5], "texture": "#litlog"},
				"up": {"uv": [0, 0, 16, 4], "rotation": 90, "texture": "#log"},
				"down": {"uv": [0, 0, 16, 4], "rotation": 90, "texture": "#log", "cullface": "down"}
			}
		},
		{
			"from": [0, 0, 6],
			"to": [16, 4, 10],
			"rotation": {"angle": 0, "axis": "y", "origin": [8, 8, 8]},
			"faces": {
				"north": {"uv": [16, 0, 0, 4], "rotation": 180, "texture": "#litlog"},
				"east": {"uv": [0, 4, 4, 8], "rotation": 180, "texture": "#log", "cullface": "east"},
				"south": {"uv": [0, 0, 16, 4], "rotation": 180, "texture": "#litlog"},
				"west": {"uv": [0, 4, 4, 8], "rotation": 180, "texture": "#log", "cullface": "west"},
				"up": {"uv": [0, 4, 16, 8], "texture": "#litlog"},
				"down": {"uv": [0, 0, 16, 4], "rotation": 180, "texture": "#log"}
			}
		},
		{
			"from": [5, 0, 3],
			"to": [11, 1, 13],
			"faces": {
				"north": {"uv": [0, 15, 6, 16], "texture": "#log", "cullface": "north"},
				"south": {"uv": [10, 15, 16, 16], "texture": "#log", "cullface": "south"},
				"up": {"uv": [0, 8, 16, 14], "rotation": 90, "texture": "#litlog"},
				"down": {"uv": [0, 8, 16, 14], "rotation": 90, "texture": "#log", "cullface": "down"}
			}
		},
		{
			"from": [3, 0, 5],
			"to": [13, 1, 11],
			"faces": {
				"east": {"uv": [0, 15, 6, 16], "texture": "#log", "cullface": "north"},
				"west": {"uv": [10, 15, 16, 16], "texture": "#log", "cullface": "south"},
				"up": {"uv": [0, 8, 16, 14], "rotation": 180, "texture": "#litlog"},
				"down": {"uv": [0, 8, 16, 14], "texture": "#log", "cullface": "down"}
			}
		}
	],
	"display": {
		"gui": {
			"rotation": [40, -43, -1],
			"translation": [0.25, 1.25, 0],
			"scale": [0.73, 0.85, 0.82]
		},
		"head": {
			"translation": [0, 10.5, 0]
		}
	},
	"groups": [
		0,
		1,
		{
			"name": "VoxelShapes",
			"origin": [8, 8, 8],
			"color": 0,
			"children": [2, 3, 4, 5]
		}
	]
}