{
   "type":"minecraft:fishing",
   "pools":[
      {
         "rolls":1.0,
         "entries":[
            {
               "type":"minecraft:item",
               "weight":100,
               "name":"bewarethedark:fish"
            }
         ]
      }
   ]
}