{
  "type": "bewarethedark:crock_pot",
  "ingredients": [
    {
     "tag": "bewarethedark:crockpot_monstermeat"
    },
    {
      "tag": "bewarethedark:crockpot_monstermeat"
    },
	{
      "tag": "bewarethedark:crockpot_filler_ml"
    },
	{
      "tag": "bewarethedark:crockpot_filler_ml"
    }
  ],
  "output": {
    "item": "bewarethedark:monster_lasagna"
  },
  "time": 480
}