{
  "type": "minecraft:crafting_shaped",
  "group": "sticks",
  "pattern": [
    "#",
    "#"
  ],
  "key": {
    "#": {
      "item": "minecraft:bamboo"
    }
  },
  "result": {
    "item": "bewarethedark:twigs"
  }
}