{
    "type": "minecraft:crafting_shaped",
    
    "pattern":
    [
        "RRR",
        "RLR",
        "RRR"
    ],
    
    "key":
    {
        "R":
        {
            "item": "bewarethedark:rocks"
        },
		"L":
		{
		    "item": "bewarethedark:spruce_log"
		}
    },
    
    "result":
    {
        "item": "bewarethedark:fire_pit",
        "count": 1
    }
}