{
    "type": "minecraft:crafting_shapeless",
    "ingredients": [
        {
            "item": "minecraft:leather_helmet"
        },
        {
            "item": "bewarethedark:fireflies"
        },
        {
            "item": "minecraft:gold_nugget"
        }
    ],
    "result": {
        "item": "bewarethedark:miner_hat",
        "count": 1
    }
}