{
   "parent": "block/cube",
   "textures": {
                        "particle": "block/coarse_dirt",
		"down": "block/coarse_dirt",
		"up": "bewarethedark:blocks/natural/plants/sunk_mushroom",
		"north": "block/coarse_dirt",
		"east": "block/coarse_dirt",
		"south": "block/coarse_dirt",
		"west": "block/coarse_dirt"
   }
}