{
    "type": "minecraft:crafting_shaped",
    "pattern": [
        "###",
        " B ",
        " B "
    ],
    "key": {
        "#": {
            "item": "minecraft:flint"
        },
        "B": {
            "item": "bewarethedark:twigs"
        }
    },
    "result": {
        "item": "bewarethedark:flint_pickaxe",
        "count": 1
    }
}