{
    "type": "minecraft:crafting_shaped",
    
    "pattern":
    [
        "FF",
        "SS"
    ],
    
    "key":
    {
        "F":
        {
            "item": "minecraft:flint"
        },
		"S":
		{
		    "item": "bewarethedark:twigs"
		}
    },
    
    "result":
    {
        "item": "bewarethedark:flint_pickaxe",
        "count": 1
    }
}