{
  "type": "bewarethedark:crock_pot",
  "ingredients": [
    {
      "tag": "bewarethedark:crockpot_veg"
    },
    {
      "tag": "bewarethedark:crockpot_butterfly"
    },
	{
      "tag": "bewarethedark:crockpot_filler_bm"
    },
	{
      "tag": "bewarethedark:crockpot_filler_bm"
    }
  ],
  "output": {
    "item": "bewarethedark:butter_muffin"
  },
  "time": 1920
}