{
  "type": "bewarethedark:crock_pot",
  "ingredients": [
    {
      "tag": "bewarethedark:crockpot_filler_honeynuggets"
    },
	{
      "tag": "bewarethedark:crockpot_honey"
    },
	{
      "tag": "bewarethedark:crockpot_filler_honeynuggets"
    },
	{
      "tag": "bewarethedark:crockpot_meat_value_half"
    }
  ],
  "output": {
    "item": "bewarethedark:honey_nuggets"
  },
  "time": 1920
}