{
  "variants": {
    "facing=east": {
      "model": "bewarethedark:block/utility/fire_pit_off",
      "y": 270
    },
    "facing=north": {
      "model": "bewarethedark:block/utility/fire_pit_off",
      "y": 180
    },
    "facing=south": {
      "model": "bewarethedark:block/utility/fire_pit_off"
    },
    "facing=west": {
      "model": "bewarethedark:block/utility/fire_pit_off",
      "y": 90
    }
  }
}