{
    "variants": 
    {
        "facing=up": 
        { 
            "model": "bewarethedark:block/natural/hollow_stump" 
        },
    
        "facing=south": 
        { 
            "model": "bewarethedark:block/natural/hollow_stump" 
        },
    
        "facing=east": 
        { 
            "model": "bewarethedark:block/natural/hollow_stump","y":270 
        },
    
        "facing=west": 
        { 
            "model": "bewarethedark:block/natural/hollow_stump","y":90 
        },
    
        "facing=north": 
        { 
            "model": "bewarethedark:block/natural/hollow_stump","y":180 
        }
    }
}