{
    "variants": {
        "moisture=0": { "model": "bewarethedark:block/foodutility/improved_farm" },
        "moisture=1": { "model": "bewarethedark:block/foodutility/improved_farm" },
        "moisture=2": { "model": "bewarethedark:block/foodutility/improved_farm" },
        "moisture=3": { "model": "bewarethedark:block/foodutility/improved_farm" },
        "moisture=4": { "model": "bewarethedark:block/foodutility/improved_farm" },
        "moisture=5": { "model": "bewarethedark:block/foodutility/improved_farm" },
        "moisture=6": { "model": "bewarethedark:block/foodutility/improved_farm" },
        "moisture=7": { "model": "bewarethedark:block/foodutility/improved_farm" }
    }
}
