{
	"variants": {
		"": [
			{ "model": "bewarethedark:block/natural/turf/red_fungal_turf" },
			{ "model": "bewarethedark:block/natural/turf/red_fungal_turf", "y": 90 },
			{ "model": "bewarethedark:block/natural/turf/red_fungal_turf", "y": 180 },
			{ "model": "bewarethedark:block/natural/turf/red_fungal_turf", "y": 270 }
		]
	}
}