{
	"variants": {
		"normal": [
			{ "model": "bewarethedark:natural/turf/savanna_turf" },
			{ "model": "bewarethedark:natural/turf/savanna_turf", "y": 90 },
			{ "model": "bewarethedark:natural/turf/savanna_turf", "y": 180 },
			{ "model": "bewarethedark:natural/turf/savanna_turf", "y": 270 }
		]
	}
}