{
    "variants": 
    {    
        "facing=south": 
        { 
            "model": "bewarethedark:block/natural/world/sinkhole" 
        },
    
        "facing=east": 
        { 
            "model": "bewarethedark:block/natural/world/sinkhole","y":270 
        },
    
        "facing=west": 
        { 
            "model": "bewarethedark:block/natural/world/sinkhole","y":90 
        },
    
        "facing=north": 
        { 
            "model": "bewarethedark:block/natural/world/sinkhole","y":180 
        }
    }
}