{
	"variants": {
		"axis=x": {
			"model": "bewarethedark:block/natural/plants/logs/spiky_tree_log",
			"x": 90,
			"y": 90
		},
		"axis=z": {
			"model": "bewarethedark:block/natural/plants/logs/spiky_tree_log",
			"x": 90
		},
		"axis=y": {
			"model": "bewarethedark:block/natural/plants/logs/spiky_tree_log"
		}
	}
}