{
    "variants": 
    {
       
        "facing=south": 
        { 
            "model": "bewarethedark:block/natural/plants/world_carrot" 
        },
    
        "facing=east": 
        { 
            "model": "bewarethedark:block/natural/plants/world_carrot","y":270 
        },
    
        "facing=west": 
        { 
            "model": "bewarethedark:block/natural/plants/world_carrot","y":90 
        },
    
        "facing=north": 
        { 
            "model": "bewarethedark:block/natural/plants/world_carrot","y":180 
        }
    }
}