{
  "type": "bewarethedark:crock_pot",
  "ingredients": [
	{
      "tag": "bewarethedark:crockpot_meat_value_one"
    },
	{
      "tag": "bewarethedark:crockpot_meat_value_one"
    },
	{
      "tag": "bewarethedark:crockpot_filler_stew"
    },
	{
      "tag": "bewarethedark:crockpot_meat_value_one"
    }
  ],
  "output": {
    "item": "bewarethedark:meaty_stew"
  },
  "time": 720
}