{
    "type": "minecraft:crafting_shaped",
    "pattern": [
        "#B#",
        "#G#",
        "BBB"
    ],
    "key": {
        "#": {
            "item": "bewarethedark:rocks"
        },
        "B": {
            "item": "bewarethedark:spruce_log"
        },
        "G": {
            "item": "minecraft:gold_nugget"
        }
    },
    "result": {
        "item": "bewarethedark:science_machine",
        "count": 1
    }
}