{
  "type": "bewarethedark:crock_pot",
  "ingredients": [
    {
      "tag": "bewarethedark:crockpot_seaweed"
    },
	{
      "tag": "bewarethedark:crockpot_seaweed"
    },
    {
      "tag": "bewarethedark:crockpot_fish"
    },
	{
      "tag": "bewarethedark:crockpot_filler_california_roll"
    }
  ],
  "output": {
    "item": "bewarethedark:california_roll"
  },
  "time": 480
}