{
  "type": "forge:add_spawns",
  "biomes": "#bewarethedark:shadow_creature_biomes",
  "spawners": {
    "type": "bewarethedark:shadow_watcher",
    "maxCount": 3,
    "minCount": 1,
    "weight": 750
  }
}