{
  "type": "bewarethedark:vegetal",
  "biomes": [
  "bewarethedark:rockyland",
  "bewarethedark:deciduous_forest",
  "bewarethedark:creepy_forest",
  "bewarethedark:lumpy_forest",
  "bewarethedark:marsh",
  "bewarethedark:graveyard"
  ],
  "feature": "bewarethedark:shadow_watcher_placed"
}