{
  "type": "bewarethedark:vegetal",
  "biomes": [
  "bewarethedark:graveyard",
  "minecraft:old_growth_pine_taiga",
  "minecraft:old_growth_spruce_taiga",
  "minecraft:taiga",
  "bewarethedark:creepy_forest",
  "bewarethedark:lumpy_forest"
  ],
  "feature": "bewarethedark:graveyard_grave_south_placed"
}