{
    "parent": "block/cube",
    "textures": {
        "particle": "bewarethedark:blocks/natural/plants/leaves/blue_mushtree_top",
        "down": "bewarethedark:blocks/natural/plants/leaves/blue_mushtree_top",
        "up": "bewarethedark:blocks/natural/plants/leaves/blue_mushtree_top",
        "west": "bewarethedark:blocks/natural/plants/leaves/blue_mushtree_side",
      "east": "bewarethedark:blocks/natural/plants/leaves/blue_mushtree_side",
	  "south": "bewarethedark:blocks/natural/plants/leaves/blue_mushtree_side",
	  "north": "bewarethedark:blocks/natural/plants/leaves/blue_mushtree_side"
    }
}