{
   "parent": "block/cross",
   "textures": {
       "cross": "bewarethedark:blocks/natural/plants/logs/spiky_tree_spike"
   }
}

{
  "variants": {
    "facing=down": {
      "model": "minecraft:block/end_rod",
      "x": 180
    },
    "facing=east": {
      "model": "minecraft:block/end_rod",
      "x": 90,
      "y": 90
    },
    "facing=north": {
      "model": "minecraft:block/end_rod",
      "x": 90
    },
    "facing=south": {
      "model": "minecraft:block/end_rod",
      "x": 90,
      "y": 180
    },
    "facing=up": {
      "model": "minecraft:block/end_rod"
    },
    "facing=west": {
      "model": "minecraft:block/end_rod",
      "x": 90,
      "y": 270
    }
  }
}