{
    "parent": "block/cube_column",
    "textures": {
        "end": "bewarethedark:blocks/natural/plants/logs/evergreen_log_top",
        "side": "bewarethedark:blocks/natural/plants/logs/evergreen_log"
    }
}