{
	"credit": "Made with Blockbench",
	"textures": {
		"0": "bewarethedark:blocks/natural/world_rocks",
		"particle": "bewarethedark:blocks/natural/world_rocks"
	},
	"elements": [
		{
			"from": [7.38889, 0, 8.58333],
			"to": [8.38889, 1, 9.58333],
			"rotation": {"angle": 0, "axis": "y", "origin": [7.38889, 8, 8.58333]},
			"faces": {
				"down": {"uv": [0, 0, 1, 1], "texture": "#0"}
			}
		},
		{
			"from": [6.38889, 0, 7.58333],
			"to": [7.38889, 1, 8.58333],
			"rotation": {"angle": 0, "axis": "y", "origin": [7.38889, 8, 8.58333]},
			"faces": {
				"down": {"uv": [0, 0, 1, 1], "texture": "#0"}
			}
		},
		{
			"from": [7.38889, 0, 7.58333],
			"to": [8.38889, 1, 8.58333],
			"rotation": {"angle": 0, "axis": "y", "origin": [7.38889, 8, 8.58333]},
			"faces": {
				"down": {"uv": [0, 0, 1, 1], "texture": "#0"}
			}
		},
		{
			"from": [6.38889, 1, 6.58333],
			"to": [7.38889, 2, 7.58333],
			"rotation": {"angle": 0, "axis": "y", "origin": [7.38889, 9, 8.58333]},
			"faces": {
				"north": {"uv": [0, 0, 16, 16], "texture": "#0"},
				"west": {"uv": [0, 0, 16, 16], "texture": "#0"},
				"up": {"uv": [0, 0, 16, 16], "texture": "#0"}
			}
		},
		{
			"from": [8.38889, 1, 8.58333],
			"to": [9.38889, 2, 9.58333],
			"rotation": {"angle": 0, "axis": "y", "origin": [7.38889, 9, 8.58333]},
			"faces": {
				"east": {"uv": [0, 0, 16, 16], "texture": "#0"},
				"south": {"uv": [0, 0, 16, 16], "texture": "#0"},
				"up": {"uv": [0, 0, 16, 16], "texture": "#0"}
			}
		},
		{
			"from": [8.38889, 0, 6.58333],
			"to": [9.38889, 1, 7.58333],
			"rotation": {"angle": 0, "axis": "y", "origin": [7.38889, 8, 8.58333]},
			"faces": {
				"down": {"uv": [0, 0, 16, 16], "texture": "#0"}
			}
		},
		{
			"from": [7.38889, 0, 9.58333],
			"to": [8.38889, 1, 10.58333],
			"rotation": {"angle": 0, "axis": "y", "origin": [7.38889, 8, 8.58333]},
			"faces": {
				"east": {"uv": [0, 0, 16, 16], "texture": "#0"},
				"south": {"uv": [0, 0, 16, 16], "texture": "#0"},
				"west": {"uv": [0, 0, 16, 16], "texture": "#0"},
				"down": {"uv": [0, 0, 16, 16], "texture": "#0"}
			}
		},
		{
			"from": [7.38889, 1, 9.58333],
			"to": [8.38889, 2, 10.58333],
			"rotation": {"angle": 0, "axis": "y", "origin": [7.38889, 9, 8.58333]},
			"faces": {
				"east": {"uv": [0, 0, 16, 16], "texture": "#0"},
				"south": {"uv": [0, 0, 16, 16], "texture": "#0"},
				"west": {"uv": [0, 0, 16, 16], "texture": "#0"},
				"up": {"uv": [0, 0, 16, 16], "texture": "#0"}
			}
		},
		{
			"from": [7.38889, 2, 6.58333],
			"to": [8.38889, 3, 7.58333],
			"rotation": {"angle": 0, "axis": "y", "origin": [7.38889, 9, 8.58333]},
			"faces": {
				"north": {"uv": [0, 0, 16, 16], "texture": "#0"},
				"east": {"uv": [0, 0, 16, 16], "texture": "#0"},
				"west": {"uv": [0, 0, 16, 16], "texture": "#0"},
				"up": {"uv": [0, 0, 16, 16], "texture": "#0"}
			}
		},
		{
			"from": [7.38889, 2, 7.58333],
			"to": [8.38889, 3, 8.58333],
			"rotation": {"angle": 0, "axis": "y", "origin": [7.38889, 9, 8.58333]},
			"faces": {
				"up": {"uv": [0, 0, 16, 16], "texture": "#0"}
			}
		},
		{
			"from": [8.38889, 2, 7.58333],
			"to": [9.38889, 3, 8.58333],
			"rotation": {"angle": 0, "axis": "y", "origin": [7.38889, 9, 8.58333]},
			"faces": {
				"north": {"uv": [0, 0, 16, 16], "texture": "#0"},
				"east": {"uv": [0, 0, 16, 16], "texture": "#0"},
				"south": {"uv": [0, 0, 16, 16], "texture": "#0"},
				"up": {"uv": [0, 0, 16, 16], "texture": "#0"}
			}
		},
		{
			"from": [8.38889, 0, 6.58333],
			"to": [9.38889, 1, 7.58333],
			"rotation": {"angle": 0, "axis": "y", "origin": [7.38889, 9, 8.58333]},
			"faces": {
				"north": {"uv": [0, 0, 16, 16], "texture": "#0"},
				"east": {"uv": [0, 0, 16, 16], "texture": "#0"}
			}
		},
		{
			"from": [8.38889, 1, 6.58333],
			"to": [9.38889, 2, 7.58333],
			"rotation": {"angle": 0, "axis": "y", "origin": [7.38889, 9, 8.58333]},
			"faces": {
				"north": {"uv": [0, 0, 16, 16], "texture": "#0"},
				"east": {"uv": [0, 0, 16, 16], "texture": "#0"},
				"south": {"uv": [0, 0, 16, 16], "texture": "#0"},
				"up": {"uv": [0, 0, 16, 16], "texture": "#0"}
			}
		},
		{
			"from": [7.38889, 2, 8.58333],
			"to": [8.38889, 3, 9.58333],
			"rotation": {"angle": 0, "axis": "y", "origin": [7.38889, 9, 8.58333]},
			"faces": {
				"east": {"uv": [0, 0, 16, 16], "texture": "#0"},
				"south": {"uv": [0, 0, 16, 16], "texture": "#0"},
				"west": {"uv": [0, 0, 16, 16], "texture": "#0"},
				"up": {"uv": [0, 0, 16, 16], "texture": "#0"}
			}
		},
		{
			"from": [7.38889, 1, 5.58333],
			"to": [8.38889, 2, 6.58333],
			"rotation": {"angle": 0, "axis": "y", "origin": [9.38889, 8, 7.58333]},
			"faces": {
				"east": {"uv": [0, 0, 16, 16], "texture": "#0"},
				"south": {"uv": [0, 0, 16, 16], "texture": "#0"},
				"up": {"uv": [0, 0, 16, 16], "texture": "#0"}
			}
		},
		{
			"from": [6.38889, 2, 7.58333],
			"to": [7.38889, 3, 8.58333],
			"rotation": {"angle": 0, "axis": "y", "origin": [7.38889, 9, 8.58333]},
			"faces": {
				"north": {"uv": [0, 0, 16, 16], "texture": "#0"},
				"south": {"uv": [0, 0, 16, 16], "texture": "#0"},
				"west": {"uv": [0, 0, 16, 16], "texture": "#0"},
				"up": {"uv": [0, 0, 16, 16], "texture": "#0"}
			}
		},
		{
			"from": [9.38889, 1, 7.58333],
			"to": [10.38889, 2, 8.58333],
			"rotation": {"angle": 0, "axis": "y", "origin": [9.38889, 8, 7.58333]},
			"faces": {
				"north": {"uv": [0, 0, 16, 16], "texture": "#0"},
				"east": {"uv": [0, 0, 16, 16], "texture": "#0"},
				"south": {"uv": [0, 0, 16, 16], "texture": "#0"},
				"west": {"uv": [0, 0, 16, 16], "texture": "#0"},
				"up": {"uv": [0, 0, 16, 16], "texture": "#0"}
			}
		},
		{
			"from": [5.38889, 0, 7.58333],
			"to": [6.38889, 1, 8.58333],
			"rotation": {"angle": 0, "axis": "y", "origin": [7.38889, 8, 8.58333]},
			"faces": {
				"north": {"uv": [0, 0, 16, 16], "texture": "#0"},
				"south": {"uv": [0, 0, 16, 16], "texture": "#0"},
				"west": {"uv": [0, 0, 16, 16], "texture": "#0"},
				"down": {"uv": [0, 0, 16, 16], "texture": "#0"}
			}
		},
		{
			"from": [5.38889, 1, 7.58333],
			"to": [6.38889, 2, 8.58333],
			"rotation": {"angle": 0, "axis": "y", "origin": [7.38889, 9, 8.58333]},
			"faces": {
				"north": {"uv": [0, 0, 16, 16], "texture": "#0"},
				"south": {"uv": [0, 0, 16, 16], "texture": "#0"},
				"west": {"uv": [0, 0, 16, 16], "texture": "#0"},
				"up": {"uv": [0, 0, 16, 16], "texture": "#0"}
			}
		},
		{
			"from": [7.38889, 0, 5.58333],
			"to": [8.38889, 1, 6.58333],
			"rotation": {"angle": 0, "axis": "y", "origin": [7.38889, 9, 8.58333]},
			"faces": {
				"north": {"uv": [0, 0, 16, 16], "texture": "#0"},
				"east": {"uv": [0, 0, 16, 16], "texture": "#0"},
				"west": {"uv": [0, 0, 16, 16], "texture": "#0"},
				"down": {"uv": [0, 0, 16, 16], "texture": "#0"}
			}
		},
		{
			"from": [9.38889, 0, 7.58333],
			"to": [10.38889, 1, 8.58333],
			"rotation": {"angle": 0, "axis": "y", "origin": [7.38889, 9, 8.58333]},
			"faces": {
				"north": {"uv": [0, 0, 16, 16], "texture": "#0"},
				"east": {"uv": [0, 0, 16, 16], "texture": "#0"},
				"south": {"uv": [0, 0, 16, 16], "texture": "#0"},
				"down": {"uv": [0, 0, 16, 16], "texture": "#0"}
			}
		},
		{
			"from": [8.38889, 0, 8.58333],
			"to": [9.38889, 1, 9.58333],
			"rotation": {"angle": 0, "axis": "y", "origin": [7.38889, 9, 8.58333]},
			"faces": {
				"east": {"uv": [0, 0, 16, 16], "texture": "#0"},
				"south": {"uv": [0, 0, 16, 16], "texture": "#0"},
				"down": {"uv": [0, 0, 16, 16], "texture": "#0"}
			}
		},
		{
			"from": [6.38889, 0, 6.58333],
			"to": [7.38889, 1, 7.58333],
			"rotation": {"angle": 0, "axis": "y", "origin": [7.38889, 9, 8.58333]},
			"faces": {
				"north": {"uv": [0, 0, 16, 16], "texture": "#0"},
				"west": {"uv": [0, 0, 16, 16], "texture": "#0"},
				"down": {"uv": [0, 0, 16, 16], "texture": "#0"}
			}
		},
		{
			"from": [7.38889, 0, 6.58333],
			"to": [8.38889, 1, 7.58333],
			"rotation": {"angle": 0, "axis": "y", "origin": [8.38889, 8, 6.58333]},
			"faces": {
				"down": {"uv": [0, 0, 16, 16], "texture": "#0"}
			}
		},
		{
			"from": [6.38889, 0, 8.58333],
			"to": [7.38889, 1, 9.58333],
			"rotation": {"angle": 0, "axis": "y", "origin": [7.38889, 8, 8.58333]},
			"faces": {
				"west": {"uv": [0, 0, 16, 16], "texture": "#0"},
				"down": {"uv": [0, 0, 16, 16], "texture": "#0"}
			}
		},
		{
			"from": [6.38889, 1, 8.58333],
			"to": [7.38889, 2, 9.58333],
			"rotation": {"angle": 0, "axis": "y", "origin": [7.38889, 9, 8.58333]},
			"faces": {
				"west": {"uv": [0, 0, 16, 16], "texture": "#0"},
				"up": {"uv": [0, 0, 16, 16], "texture": "#0"}
			}
		},
		{
			"from": [8.38889, 0, 7.58333],
			"to": [9.38889, 1, 8.58333],
			"rotation": {"angle": 0, "axis": "y", "origin": [9.38889, 8, 7.58333]},
			"faces": {
				"down": {"uv": [0, 0, 16, 16], "texture": "#0"}
			}
		},
		{
			"from": [7.38889, 1, 5.58333],
			"to": [8.38889, 2, 6.58333],
			"rotation": {"angle": 0, "axis": "y", "origin": [7.38889, 9, 8.58333]},
			"faces": {
				"north": {"uv": [0, 0, 16, 16], "texture": "#0"},
				"west": {"uv": [0, 0, 16, 16], "texture": "#0"}
			}
		},
		{
			"from": [6.38889, 0, 9.58333],
			"to": [7.38889, 1, 9.58333],
			"rotation": {"angle": 0, "axis": "y", "origin": [7.38889, 8, 8.58333]},
			"faces": {
				"south": {"uv": [0, 0, 16, 16], "texture": "#0"}
			}
		},
		{
			"from": [6.38889, 1, 9.58333],
			"to": [7.38889, 2, 9.58333],
			"rotation": {"angle": 0, "axis": "y", "origin": [7.38889, 9, 8.58333]},
			"faces": {
				"south": {"uv": [0, 0, 16, 16], "texture": "#0"}
			}
		}
	],
	"display": {
		"thirdperson_righthand": {
			"translation": [-0.75, 8, 0]
		},
		"thirdperson_lefthand": {
			"rotation": [0, 84, 0],
			"translation": [0.75, 8, 0.5]
		},
		"firstperson_righthand": {
			"translation": [0, 7.5, 0]
		},
		"firstperson_lefthand": {
			"rotation": [4, -12, 0],
			"translation": [0, 7.75, 0]
		},
		"ground": {
			"translation": [0, 4.25, 0]
		},
		"gui": {
			"rotation": [47, -28, 0],
			"translation": [-0.25, 5, 0]
		},
		"fixed": {
			"rotation": [-75, -1, -4],
			"translation": [0.25, 2.75, -8]
		}
	},
	"groups": [
		{
			"name": "VoxelShapes",
			"origin": [8, 8, 8],
			"color": 0,
			"children": [0, 1, 2, 3, 4, 5, 6, 7, 8, 9, 10, 11, 12, 13, 14, 15, 16, 17, 18, 19, 20, 21, 22, 23, 24, 25, 26, 27, 28, 29]
		}
	]
}