{
  "type": "bewarethedark:crock_pot",
  "ingredients": [
    {
      "tag": "bewarethedark:crockpot_filler_melonsicle"
    },
	{
      "tag": "bewarethedark:crockpot_twigs"
    },
	{
      "tag": "bewarethedark:crockpot_ice"
    },
	{
      "tag": "bewarethedark:crockpot_melon"
    }
  ],
  "output": {
    "item": "bewarethedark:melonsicle"
  },
  "time": 480
}