{
  "type": "bewarethedark:crock_pot",
  "ingredients": [
    {
      "tag": "bewarethedark:crockpot_filler_kabobs"
    },
	{
      "tag": "bewarethedark:crockpot_meat_value_half"
    },
    {
      "tag": "bewarethedark:crockpot_twigs"
    },
	{
      "tag": "bewarethedark:crockpot_filler_kabobs"
    }
  ],
  "output": {
    "item": "bewarethedark:kabobs"
  },
  "time": 1920
}