{
  "type": "bewarethedark:crock_pot",
  "ingredients": [
    {
      "item": "bewarethedark:butter"
    },
	{
      "tag": "bewarethedark:crockpot_inputs"
    },
	{
      "tag": "bewarethedark:crockpot_eggs"
    },
	{
      "tag": "bewarethedark:crockpot_berries"
    }
  ],
  "output": {
    "item": "bewarethedark:waffles"
  },
  "time": 480
}