{
  "type": "bewarethedark:crock_pot",
  "ingredients": [
    {
      "tag": "bewarethedark:crockpot_ice"
    },
	{
      "tag": "bewarethedark:crockpot_filler_no_meat"
    },
	{
      "tag": "bewarethedark:crockpot_meat_value_half"
    },
	{
      "tag": "bewarethedark:crockpot_ice"
    }
  ],
  "output": {
    "item": "bewarethedark:bunny_stew"
  },
  "time": 480
}