{
    "type": "minecraft:crafting_shapeless",
    "ingredients": [
        {
            "item": "bewarethedark:rocks"
        },
        {
            "item": "bewarethedark:rocks"
        },
        {
            "item": "bewarethedark:rocks"
        }
    ],
    
    "result":
    {
        "item": "bewarethedark:cut_stone",
        "count": 1
    }
}